<gpx version="1.1" creator="gpsxml">
 <metadata>
  <time>2013-01-16T16:44:14+01:00</time>
  <bounds maxlon="-180" minlon="180" maxlat="-90" minlat="90"/>
 </metadata>
 <wpt lon="9.14011062600002" lat="42.385331114"/>
 <wpt lon="9.19671411299998" lat="42.451330574"/>
 <wpt lon="9.20658996999998" lat="42.458701642"/>
 <wpt lon="9.49053885900003" lat="42.3322661230001"/>
 <wpt lon="9.46684306100002" lat="42.44639853"/>
 <wpt lon="9.50642387200003" lat="42.444993731"/>
 <wpt lon="9.47103564600008" lat="42.4960389930001"/>
 <wpt lon="9.41344863099999" lat="42.449523312"/>
 <wpt lon="9.391748753" lat="42.431957862"/>
 <wpt lon="9.35668532400001" lat="42.424668804"/>
 <wpt lon="9.34531375199998" lat="42.403015629"/>
 <trk>
  <name>merged</name>
  <cmt>Merged track from 6080085-SecreteCastagniccia.gpx</cmt>
  <trkseg>
   <trkpt lon="9.14011062600002" lat="42.385331114"/>
   <trkpt lon="9.14120829900003" lat="42.417450498"/>
   <trkpt lon="9.13718149099998" lat="42.440256829"/>
   <trkpt lon="9.16571372999999" lat="42.454057321"/>
   <trkpt lon="9.19671411299998" lat="42.451330574"/>
   <trkpt lon="9.20658996999998" lat="42.458701642"/>
   <trkpt lon="9.23358367203798" lat="42.4481318081252"/>
   <trkpt lon="9.26404757847369" lat="42.4492373636918"/>
   <trkpt lon="9.28664383557928" lat="42.4340520966679"/>
   <trkpt lon="9.31686329411081" lat="42.431022321427"/>
   <trkpt lon="9.33695979331944" lat="42.4141348106567"/>
   <trkpt lon="9.34524227808451" lat="42.3924714902161"/>
   <trkpt lon="9.36549252498113" lat="42.3756642830349"/>
   <trkpt lon="9.36739226281146" lat="42.3532127301504"/>
   <trkpt lon="9.3977876595029" lat="42.3504543471061"/>
   <trkpt lon="9.41263449462681" lat="42.3307826299346"/>
   <trkpt lon="9.43261438135502" lat="42.3137875407465"/>
   <trkpt lon="9.46258376193892" lat="42.3098395932858"/>
   <trkpt lon="9.48608066741003" lat="42.3243664054723"/>
   <trkpt lon="9.49053885900003" lat="42.3322661230001"/>
   <trkpt lon="9.49025384499998" lat="42.35864951"/>
   <trkpt lon="9.49023541899999" lat="42.38227674"/>
   <trkpt lon="9.479043483" lat="42.404665467"/>
   <trkpt lon="9.47290091299999" lat="42.429643328"/>
   <trkpt lon="9.46684306100002" lat="42.44639853"/>
   <trkpt lon="9.50642387200003" lat="42.444993731"/>
   <trkpt lon="9.48359741200005" lat="42.4716450290001"/>
   <trkpt lon="9.47159882400007" lat="42.495599993"/>
   <trkpt lon="9.47103564600008" lat="42.4960389930001"/>
   <trkpt lon="9.45202175600002" lat="42.476980129"/>
   <trkpt lon="9.43923347800001" lat="42.455740179"/>
   <trkpt lon="9.41344863099999" lat="42.449523312"/>
   <trkpt lon="9.391748753" lat="42.431957862"/>
   <trkpt lon="9.36098944999998" lat="42.435113306"/>
   <trkpt lon="9.35668532400001" lat="42.424668804"/>
   <trkpt lon="9.34531375199998" lat="42.403015629"/>
  </trkseg>
 </trk>
</gpx>
