<?xml version="1.0" encoding="UTF-8" standalone="yes"?>
<gpx
version="1.0"
creator="ITN Converter 1.78 (http://www.benichou-software.com)"
xmlns:xsi="http://www.w3.org/2001/XMLSchema-instance"
xmlns="http://www.topografix.com/GPX/1/0"
xmlns:topografix="http://www.topografix.com/GPX/Private/TopoGrafix/0/2"
xsi:schemaLocation="http://www.topografix.com/GPX/1/0 http://www.topografix.com/GPX/1/0/gpx.xsd http://www.topografix.com/GPX/Private/TopoGrafix/0/2 http://www.topografix.com/GPX/Private/TopoGrafix/0/2/topografix.xsd">
<time>2011-05-02T06:47:32Z</time>
<bounds minlat="44.103480" minlon="3.091510" maxlat="44.484000" maxlon="4.042090"/>
<rte>
  <name>04 - Tarn</name>
<rtept lat="44.185540" lon="3.128170">
  <name>Route de Millau, 12640 Rivière-sur-Tarn, France</name>
</rtept>
<rtept lat="44.158080" lon="3.101300">
  <name>Route des Gorges du Tarn, 12520 Aguessac, France</name>
</rtept>
<rtept lat="44.133030" lon="3.101090">
  <name>Avenue de Millau Plage, 12520 Paulhe, France</name>
</rtept>
<rtept lat="44.103480" lon="3.091510">
  <name>Rue du Causse Noir, 12100 Millau, France</name>
</rtept>
<rtept lat="44.159000" lon="3.209520">
  <name>D110, 12720 Peyreleau, France</name>
</rtept>
<rtept lat="44.190180" lon="3.213270">
  <name>D996, 48150 Le Rozier, France</name>
</rtept>
<rtept lat="44.182430" lon="3.424800">
  <name>D996, 48150 Meyrueis, France</name>
</rtept>
<rtept lat="44.234610" lon="3.366480">
  <name>D986, 48150 Hures-la-Parade, France</name>
</rtept>
<rtept lat="44.297670" lon="3.377630">
  <name>D16, 48210 Mas-Saint-Chély, France</name>
</rtept>
<rtept lat="44.316580" lon="3.612790">
  <name>N106, 48400 La Salle-Prunet, France</name>
</rtept>
<rtept lat="44.222710" lon="4.042090">
  <name>D128, 30110 La Grand-Combe, France</name>
</rtept>
<rtept lat="44.314150" lon="3.969110">
  <name>D906, 30450 Génolhac, France</name>
</rtept>
<rtept lat="44.448970" lon="3.912690">
  <name>D901, 48800 Villefort, France</name>
</rtept>
<rtept lat="44.484000" lon="3.732000">
  <name>D20, 48190 Le Bleymard, France</name>
</rtept>
<rtept lat="44.427580" lon="3.764550">
  <name>D20, 48190 Cubières, France</name>
</rtept>
<rtept lat="44.336720" lon="3.595710">
  <name>D998, 48400 Bédouès, France</name>
</rtept>
<rtept lat="44.363060" lon="3.522360">
  <name>D907bis, 48320 Quézac, France</name>
</rtept>
<rtept lat="44.342740" lon="3.388580">
  <name>D907bis, 48210 Sainte-Enimie, France</name>
</rtept>
<rtept lat="44.270200" lon="3.226170">
  <name>D907bis, 48210 Les Vignes, France</name>
</rtept>
<rtept lat="44.189460" lon="3.136420">
  <name>Route des Gorges du Tarn, 12640 Rivière-sur-Tarn, France</name>
</rtept>
</rte>
</gpx>
