<?xml version="1.0" encoding="UTF-8" standalone="yes"?>
<gpx
version="1.0"
creator="ITN Converter 1.83 (http://www.benichou-software.com)"
xmlns:xsi="http://www.w3.org/2001/XMLSchema-instance"
xmlns="http://www.topografix.com/GPX/1/0"
xmlns:topografix="http://www.topografix.com/GPX/Private/TopoGrafix/0/2"
xsi:schemaLocation="http://www.topografix.com/GPX/1/0 http://www.topografix.com/GPX/1/0/gpx.xsd http://www.topografix.com/GPX/Private/TopoGrafix/0/2 http://www.topografix.com/GPX/Private/TopoGrafix/0/2/topografix.xsd">
<time>2014-04-07T06:00:12Z</time>
<bounds minlat="45.141400" minlon="2.122285" maxlat="45.767300" maxlon="3.083050"/>
<rte>
  <name>Clermont - Salers</name>
<rtept lat="45.767300" lon="3.083050">
  <name>N89/Avenue de la Libération</name>
</rtept>
<rtept lat="45.706314" lon="3.027124">
  <name>Saint-Genès-Champanelle, D2089</name>
</rtept>
<rtept lat="45.681598" lon="2.997685">
  <name>Aydat, D90</name>
</rtept>
<rtept lat="45.672757" lon="2.982814">
  <name>Aydat, D213</name>
</rtept>
<rtept lat="45.664117" lon="2.965176">
  <name>Aydat</name>
</rtept>
<rtept lat="45.553189" lon="2.943397">
  <name>Saint-Victor-la-Rivière, D5</name>
</rtept>
<rtept lat="45.534858" lon="2.974560">
  <name>Saint-Pierre-Colamine, D978</name>
</rtept>
<rtept lat="45.532761" lon="3.031217">
  <name>Saurier, D621</name>
</rtept>
<rtept lat="45.505526" lon="3.034921">
  <name>Courgoul, D26</name>
</rtept>
<rtept lat="45.470401" lon="2.979600">
  <name>Valbeleix, D127</name>
</rtept>
<rtept lat="45.470960" lon="2.965769">
  <name>Besse-en-Chandesse, D127</name>
</rtept>
<rtept lat="45.458913" lon="2.954934">
  <name>Besse-en-Chandesse, D624</name>
</rtept>
<rtept lat="45.430950" lon="2.911017">
  <name>Compains, D26</name>
</rtept>
<rtept lat="45.414748" lon="2.833611">
  <name>Égliseneuve-d&apos;Entraigues, D978</name>
</rtept>
<rtept lat="45.342329" lon="2.741284">
  <name>Condat, D679</name>
</rtept>
<rtept lat="45.389046" lon="2.493269">
  <name>Bort-les-Orgues, D922</name>
</rtept>
<rtept lat="45.351843" lon="2.521289">
  <name>Les Lempradets, D3</name>
</rtept>
<rtept lat="45.282032" lon="2.631175">
  <name>Riom-ès-Montagnes, D678</name>
</rtept>
<rtept lat="45.248140" lon="2.404642">
  <name>Méallet, D12</name>
</rtept>
<rtept lat="45.359088" lon="2.453338">
  <name>Madic, D15</name>
</rtept>
<rtept lat="45.351134" lon="2.340872">
  <name>Sérandon, D168E3</name>
</rtept>
<rtept lat="45.288721" lon="2.281532">
  <name>Neuvic, D982</name>
</rtept>
<rtept lat="45.251536" lon="2.217920">
  <name>Soursac, D16</name>
</rtept>
<rtept lat="45.295095" lon="2.159385">
  <name>Lapleau, D16</name>
</rtept>
<rtept lat="45.276208" lon="2.122285">
  <name>Laval-sur-Luzège, D98E</name>
</rtept>
<rtept lat="45.222883" lon="2.173660">
  <name>Spontour-sur-Dordogne, D978</name>
</rtept>
<rtept lat="45.141400" lon="2.491665">
  <name>Salers, D22</name>
</rtept>
</rte>
</gpx>
