<?xml version="1.0" encoding="UTF-8" standalone="yes"?>
<gpx
version="1.0"
creator="ITN Converter 1.78 (http://www.benichou-software.com)"
xmlns:xsi="http://www.w3.org/2001/XMLSchema-instance"
xmlns="http://www.topografix.com/GPX/1/0"
xmlns:topografix="http://www.topografix.com/GPX/Private/TopoGrafix/0/2"
xsi:schemaLocation="http://www.topografix.com/GPX/1/0 http://www.topografix.com/GPX/1/0/gpx.xsd http://www.topografix.com/GPX/Private/TopoGrafix/0/2 http://www.topografix.com/GPX/Private/TopoGrafix/0/2/topografix.xsd">
<time>2011-05-15T08:09:00Z</time>
<bounds minlat="44.914500" minlon="2.447050" maxlat="45.767500" maxlon="3.257950"/>
<rte>
  <name>Aurillac</name>
<rtept lat="45.767500" lon="3.083110">
  <name>47 Avenue de la Libération, 63000 Clermont-Ferrand, France</name>
</rtept>
<rtept lat="45.691890" lon="2.988130">
  <name>D2089, 63970 Aydat, France</name>
</rtept>
<rtept lat="45.549260" lon="2.943770">
  <name>D5, 63790 Saint-Victor-la-Rivière, France</name>
</rtept>
<rtept lat="45.391510" lon="2.818750">
  <name>D678, 15190 Chanterelle, France</name>
</rtept>
<rtept lat="45.316530" lon="2.684950">
  <name>D678, 15190 Saint-Amandin, France</name>
</rtept>
<rtept lat="45.144700" lon="2.698660">
  <name>D62, 15400 Le Claux, France</name>
</rtept>
<rtept lat="45.111800" lon="2.671570">
  <name>D17, 15380 Le Falgoux, France</name>
</rtept>
<rtept lat="45.049190" lon="2.611100">
  <name>D17, 15590 Saint-Cirgues-de-Jordanne, France</name>
</rtept>
<rtept lat="45.047830" lon="2.596270">
  <name>D246, 15590 Lascelle, France</name>
</rtept>
<rtept lat="45.007650" lon="2.540000">
  <name>D35, 15250 Laroquevieille, France</name>
</rtept>
<rtept lat="44.936830" lon="2.447050">
  <name>Route des Crêtes, 15000 Aurillac, France</name>
</rtept>
<rtept lat="44.914500" lon="2.450560">
  <name>Ancienne Route de Clermont, 15000 Aurillac, France</name>
</rtept>
<rtept lat="44.947440" lon="2.566740">
  <name>N122, 15800 Polminhac, France</name>
</rtept>
<rtept lat="45.080810" lon="2.743240">
  <name>D67, 15800 Saint-Jacques-des-Blats, France</name>
</rtept>
<rtept lat="45.105030" lon="2.860220">
  <name>N122, 15300 Murat, France</name>
</rtept>
<rtept lat="45.296790" lon="3.188260">
  <name>D909, 43450 Blesle, France</name>
</rtept>
<rtept lat="45.379860" lon="3.257950">
  <name>Rue des Gorges de l&apos;Allagnon, 43410 Lempdes-sur-Allagnon, France</name>
</rtept>
<rtept lat="45.766500" lon="3.083050">
  <name>59 N89, 63000 Clermont-Ferrand, France</name>
</rtept>
</rte>
</gpx>
