<?xml version="1.0" encoding="UTF-8" standalone="yes"?>
<gpx
version="1.0"
creator="ITN Converter 1.82 (http://www.benichou-software.com)"
xmlns:xsi="http://www.w3.org/2001/XMLSchema-instance"
xmlns="http://www.topografix.com/GPX/1/0"
xmlns:topografix="http://www.topografix.com/GPX/Private/TopoGrafix/0/2"
xsi:schemaLocation="http://www.topografix.com/GPX/1/0 http://www.topografix.com/GPX/1/0/gpx.xsd http://www.topografix.com/GPX/Private/TopoGrafix/0/2 http://www.topografix.com/GPX/Private/TopoGrafix/0/2/topografix.xsd">
<time>2013-10-26T10:53:15Z</time>
<bounds minlat="45.635213" minlon="2.826424" maxlat="45.765991" maxlon="3.074474"/>
<rte>
  <name>Itinéraire</name>
<rtept lat="45.765991" lon="3.039695">
  <name>Royat, D68</name>
</rtept>
<rtept lat="45.763794" lon="2.957970">
  <name>Orcines, D68</name>
</rtept>
<rtept lat="45.759594" lon="2.904872">
  <name>Montmeyre</name>
</rtept>
<rtept lat="45.740975" lon="2.944699">
  <name>Nébouzat, D942</name>
</rtept>
<rtept lat="45.635213" lon="2.826424">
  <name>Orcival, D27</name>
</rtept>
<rtept lat="45.687197" lon="2.941996">
  <name>Aydat, D5</name>
</rtept>
<rtept lat="45.749543" lon="3.033098">
  <name>Royat, D5F</name>
</rtept>
<rtept lat="45.748348" lon="3.050460">
  <name>Ceyrat, D767</name>
</rtept>
<rtept lat="45.747842" lon="3.074474">
  <name>Beaumont, N89</name>
</rtept>
</rte>
</gpx>
