<?xml version="1.0" encoding="UTF-8" standalone="yes"?>
<gpx
version="1.0"
creator="ITN Converter 1.78 (http://www.benichou-software.com)"
xmlns:xsi="http://www.w3.org/2001/XMLSchema-instance"
xmlns="http://www.topografix.com/GPX/1/0"
xmlns:topografix="http://www.topografix.com/GPX/Private/TopoGrafix/0/2"
xsi:schemaLocation="http://www.topografix.com/GPX/1/0 http://www.topografix.com/GPX/1/0/gpx.xsd http://www.topografix.com/GPX/Private/TopoGrafix/0/2 http://www.topografix.com/GPX/Private/TopoGrafix/0/2/topografix.xsd">
<time>2012-06-03T07:11:55Z</time>
<bounds minlat="45.444839" minlon="2.699366" maxlat="45.767593" maxlon="3.245482"/>
<rte>
  <name>Sancy</name>
<rtept lat="45.767593" lon="3.083060">
  <name>Clermont-Ferrand, Avenue de la Libération</name>
</rtept>
<rtept lat="45.762285" lon="3.090000">
  <name>Clermont-Ferrand, Rue des Liondards</name>
</rtept>
<rtept lat="45.751184" lon="3.055284">
  <name>Ceyrat</name>
</rtept>
<rtept lat="45.744556" lon="3.035400">
  <name>Saint-Genès-Champanelle</name>
</rtept>
<rtept lat="45.746590" lon="2.991648">
  <name>Saint-Genès-Champanelle</name>
</rtept>
<rtept lat="45.740058" lon="2.940847">
  <name>Nébouzat</name>
</rtept>
<rtept lat="45.682357" lon="2.843217">
  <name>Orcival</name>
</rtept>
<rtept lat="45.579134" lon="2.799034">
  <name>Le Mont-Dore</name>
</rtept>
<rtept lat="45.529871" lon="2.699366">
  <name>La Tour-d&apos;Auvergne</name>
</rtept>
<rtept lat="45.462614" lon="2.773995">
  <name>Picherande</name>
</rtept>
<rtept lat="45.507860" lon="2.939103">
  <name>Besse-en-Chandesse, Route de Compains</name>
</rtept>
<rtept lat="45.444839" lon="2.926614">
  <name>Compains</name>
</rtept>
<rtept lat="45.470988" lon="2.987029">
  <name>Valbeleix</name>
</rtept>
<rtept lat="45.531659" lon="3.035175">
  <name>Saurier</name>
</rtept>
<rtept lat="45.560581" lon="3.019112">
  <name>Saint-Nectaire</name>
</rtept>
<rtept lat="45.593956" lon="2.992307">
  <name>Saint-Nectaire</name>
</rtept>
<rtept lat="45.601450" lon="2.989443">
  <name>Saint-Nectaire</name>
</rtept>
<rtept lat="45.618942" lon="3.025818">
  <name>Olloix</name>
</rtept>
<rtept lat="45.635884" lon="3.072865">
  <name>Olloix</name>
</rtept>
<rtept lat="45.658667" lon="3.090584">
  <name>Saint-Saturnin, Rue Principale</name>
</rtept>
<rtept lat="45.629963" lon="3.090045">
  <name>Saint-Sandoux</name>
</rtept>
<rtept lat="45.589017" lon="3.131621">
  <name>Champeix, Quai de Beaugeix</name>
</rtept>
<rtept lat="45.544463" lon="3.245482">
  <name>Issoire, Rue du 8 Mai</name>
</rtept>
</rte>
</gpx>
