<?xml version="1.0" encoding="UTF-8"?>
<gpx xmlns="http://www.topografix.com/GPX/1/1" creator="FME(R) 2012 SP3" version="1.1" xmlns:xsi="http://www.w3.org/2001/XMLSchema-instance" xsi:schemaLocation="http://www.topografix.com/GPX/1/1 http://www.topografix.com/GPX/1/1/gpx.xsd">
<metadata>
<time>2013-01-16T16:37:22+01:00</time>
<bounds minlat="43.883208133" minlon="-0.778167021000002" maxlat="44.45970165" maxlon="0.185475804000021"/>
</metadata>
<rte>
<rtept lon="-0.777782596000009" lat="44.308627633">
</rtept>
<rtept lon="-0.778167021000002" lat="44.309990056">
</rtept>
<rtept lon="-0.765078351" lat="44.310193254">
</rtept>
<rtept lon="-0.754955500999984" lat="44.314665236">
</rtept>
<rtept lon="-0.753694098999972" lat="44.315222364">
</rtept>
<rtept lon="-0.743995127999995" lat="44.319397872">
</rtept>
<rtept lon="-0.714703858999997" lat="44.322113724">
</rtept>
<rtept lon="-0.647987994000005" lat="44.328836908">
</rtept>
<rtept lon="-0.638614293999979" lat="44.331626696">
</rtept>
<rtept lon="-0.63000347000002" lat="44.332101308">
</rtept>
<rtept lon="-0.619010536000019" lat="44.328587752">
</rtept>
<rtept lon="-0.603635913999995" lat="44.326433679">
</rtept>
<rtept lon="-0.584430725999994" lat="44.32379239">
</rtept>
<rtept lon="-0.573735817999989" lat="44.324707361">
</rtept>
<rtept lon="-0.569238932000019" lat="44.328534078">
</rtept>
<rtept lon="-0.539083401000028" lat="44.373926158">
</rtept>
</rte>
<rte>
<rtept lon="-0.213439999999991" lat="44.43149">
</rtept>
<rtept lon="-0.213647648000006" lat="44.431474648">
</rtept>
<rtept lon="-0.19597600100002" lat="44.430858744">
</rtept>
<rtept lon="-0.178585218000023" lat="44.424828058">
</rtept>
<rtept lon="-0.166384085000004" lat="44.419827056">
</rtept>
<rtept lon="-0.153841007999972" lat="44.409951796">
</rtept>
<rtept lon="-0.143955989999995" lat="44.404043451">
</rtept>
<rtept lon="-0.100281268000003" lat="44.390860214">
</rtept>
<rtept lon="-0.0925739979999776" lat="44.389634182">
</rtept>
<rtept lon="-0.0849032219999799" lat="44.391749595">
</rtept>
<rtept lon="-0.071225572000003" lat="44.391795498">
</rtept>
<rtept lon="-0.0507564850000222" lat="44.390517875">
</rtept>
<rtept lon="-0.0356168310000271" lat="44.38468485">
</rtept>
<rtept lon="-0.0125007340000138" lat="44.36842561">
</rtept>
<rtept lon="-0.00677339999998594" lat="44.364394837">
</rtept>
<rtept lon="0.00655474600000616" lat="44.355030077">
</rtept>
<rtept lon="0.0160764920000247" lat="44.352417856">
</rtept>
<rtept lon="0.032948073" lat="44.348757339">
</rtept>
<rtept lon="0.0490152539999826" lat="44.341223422">
</rtept>
<rtept lon="0.0675841660000174" lat="44.330370048">
</rtept>
<rtept lon="0.07319615199998" lat="44.325942133">
</rtept>
<rtept lon="0.0771154909999723" lat="44.322849121">
</rtept>
<rtept lon="0.0833764180000003" lat="44.316506866">
</rtept>
<rtept lon="0.0873960519999741" lat="44.314780333">
</rtept>
</rte>
<rte>
<rtept lon="0.0105116259999818" lat="43.985404225">
</rtept>
<rtept lon="0.00800578399997676" lat="43.979003834">
</rtept>
<rtept lon="0.00679356900002404" lat="43.971978889">
</rtept>
<rtept lon="-0.00494522700000744" lat="43.964624362">
</rtept>
<rtept lon="-0.0113393699999733" lat="43.961587792">
</rtept>
<rtept lon="-0.02082483800001" lat="43.957441006">
</rtept>
<rtept lon="-0.0410463800000116" lat="43.951468198">
</rtept>
<rtept lon="-0.0533139730000016" lat="43.944645869">
</rtept>
<rtept lon="-0.056206632999988" lat="43.940634696">
</rtept>
<rtept lon="-0.0570895870000072" lat="43.937624453">
</rtept>
<rtept lon="-0.0566329790000282" lat="43.935281526">
</rtept>
</rte>
<rte>
<rtept lon="0.185057233999999" lat="44.090208698">
</rtept>
<rtept lon="0.185475804000021" lat="44.090552113">
</rtept>
<rtept lon="0.153033702000016" lat="44.063917194">
</rtept>
<rtept lon="0.143387383999993" lat="44.056132342">
</rtept>
<rtept lon="0.141409814999975" lat="44.05192057">
</rtept>
<rtept lon="0.142072503999998" lat="44.046870068">
</rtept>
</rte>
<rte>
<rtept lon="-0.189485594000018" lat="43.970810532">
</rtept>
<rtept lon="-0.211185057000023" lat="43.964353361">
</rtept>
<rtept lon="-0.227213676000019" lat="43.941545617">
</rtept>
<rtept lon="-0.233455498000012" lat="43.936746288">
</rtept>
<rtept lon="-0.233237103000022" lat="43.931668336">
</rtept>
<rtept lon="-0.246082090000016" lat="43.930531855">
</rtept>
<rtept lon="-0.270247946999973" lat="43.920240901">
</rtept>
<rtept lon="-0.284167007000008" lat="43.916957088">
</rtept>
<rtept lon="-0.304091031999974" lat="43.903790424">
</rtept>
<rtept lon="-0.305880000000002" lat="43.89384">
</rtept>
</rte>
<rte>
<rtept lon="-0.498206949999997" lat="43.892526694">
</rtept>
<rtept lon="-0.504601908999973" lat="43.891867">
</rtept>
<rtept lon="-0.514098289000003" lat="43.897975783">
</rtept>
<rtept lon="-0.519774847000008" lat="43.901626293">
</rtept>
<rtept lon="-0.530636199000014" lat="43.906489033">
</rtept>
<rtept lon="-0.543165853000005" lat="43.9091187">
</rtept>
</rte>
<rte>
<rtept lon="0.0348814750000201" lat="44.197826631">
</rtept>
<rtept lon="0.0525724359999913" lat="44.196453862">
</rtept>
<rtept lon="0.0676845940000135" lat="44.192159645">
</rtept>
<rtept lon="0.0933048759999906" lat="44.184176788">
</rtept>
<rtept lon="0.162140109999996" lat="44.163804471">
</rtept>
</rte>
<rte>
<rtept lon="-0.0566329790000282" lat="43.935281526">
</rtept>
<rtept lon="-0.0720466189999911" lat="43.938473347">
</rtept>
<rtept lon="-0.0899764709999999" lat="43.937578692">
</rtept>
<rtept lon="-0.090159242000027" lat="43.937569556">
</rtept>
<rtept lon="-0.103335555000001" lat="43.934807141">
</rtept>
<rtept lon="-0.108458332999987" lat="43.934283196">
</rtept>
<rtept lon="-0.115926371" lat="43.934477708">
</rtept>
<rtept lon="-0.122722106000026" lat="43.937071242">
</rtept>
<rtept lon="-0.134603561999995" lat="43.944350304">
</rtept>
<rtept lon="-0.144020837000028" lat="43.949048907">
</rtept>
<rtept lon="-0.149417728000003" lat="43.949911039">
</rtept>
<rtept lon="-0.157194501999982" lat="43.949584158">
</rtept>
<rtept lon="-0.162773991999984" lat="43.951371015">
</rtept>
<rtept lon="-0.167164074000027" lat="43.953752072">
</rtept>
<rtept lon="-0.176584541000011" lat="43.961752662">
</rtept>
<rtept lon="-0.189485594000018" lat="43.970810532">
</rtept>
</rte>
<rte>
<rtept lon="-0.543165853000005" lat="43.9091187">
</rtept>
<rtept lon="-0.544996442000013" lat="43.911522282">
</rtept>
<rtept lon="-0.562982668000018" lat="43.928556173">
</rtept>
<rtept lon="-0.580544271000008" lat="43.9449651">
</rtept>
<rtept lon="-0.591849807000017" lat="43.960928402">
</rtept>
<rtept lon="-0.605779876999975" lat="43.991110061">
</rtept>
<rtept lon="-0.615746161000004" lat="44.004986999">
</rtept>
<rtept lon="-0.632474967000007" lat="44.020144976">
</rtept>
<rtept lon="-0.649407709999991" lat="44.037734124">
</rtept>
<rtept lon="-0.655356304000009" lat="44.050035">
</rtept>
<rtept lon="-0.669850960000019" lat="44.073688178">
</rtept>
<rtept lon="-0.701804099000015" lat="44.109739903">
</rtept>
<rtept lon="-0.709197501000006" lat="44.121439305">
</rtept>
<rtept lon="-0.711520248999989" lat="44.13491349">
</rtept>
<rtept lon="-0.720688060999976" lat="44.139391723">
</rtept>
<rtept lon="-0.737455549000003" lat="44.146950969">
</rtept>
<rtept lon="-0.74120416400001" lat="44.153018149">
</rtept>
<rtept lon="-0.742627608000021" lat="44.160616519">
</rtept>
<rtept lon="-0.743868603999999" lat="44.167239259">
</rtept>
<rtept lon="-0.746647386999996" lat="44.171625964">
</rtept>
<rtept lon="-0.746775634000016" lat="44.179648682">
</rtept>
<rtept lon="-0.747028372999978" lat="44.19123">
</rtept>
<rtept lon="-0.74330338499999" lat="44.200117092">
</rtept>
<rtept lon="-0.743268983000007" lat="44.205881628">
</rtept>
<rtept lon="-0.74461504300001" lat="44.210195643">
</rtept>
<rtept lon="-0.750292301999991" lat="44.214040398">
</rtept>
<rtept lon="-0.754065948999994" lat="44.219365635">
</rtept>
<rtept lon="-0.755991182000002" lat="44.225830016">
</rtept>
<rtept lon="-0.765139800999975" lat="44.276119893">
</rtept>
<rtept lon="-0.769732719999979" lat="44.290583215">
</rtept>
<rtept lon="-0.771467899000015" lat="44.292915238">
</rtept>
<rtept lon="-0.774499365999986" lat="44.296988882">
</rtept>
<rtept lon="-0.777782596000009" lat="44.308627633">
</rtept>
</rte>
<rte>
<rtept lon="-0.539083401000028" lat="44.373926158">
</rtept>
<rtept lon="-0.520894446" lat="44.389915129">
</rtept>
<rtept lon="-0.499995743999989" lat="44.406409241">
</rtept>
<rtept lon="-0.495127599999989" lat="44.416075408">
</rtept>
<rtept lon="-0.49061612600002" lat="44.42766918">
</rtept>
</rte>
<rte>
<rtept lon="0.0873960519999741" lat="44.314780333">
</rtept>
<rtept lon="0.0812054520000061" lat="44.310644756">
</rtept>
<rtept lon="0.075029652000012" lat="44.302448917">
</rtept>
<rtept lon="0.0626918610000189" lat="44.287617853">
</rtept>
<rtept lon="0.0588566229999969" lat="44.276979661">
</rtept>
<rtept lon="0.0509486920000199" lat="44.250552199">
</rtept>
<rtept lon="0.0390735500000119" lat="44.209461045">
</rtept>
<rtept lon="0.0342987309999785" lat="44.197871796">
</rtept>
<rtept lon="0.0348814750000201" lat="44.197826631">
</rtept>
</rte>
<rte>
<rtept lon="0.142072503999998" lat="44.046870068">
</rtept>
<rtept lon="0.133903882000027" lat="44.043402005">
</rtept>
<rtept lon="0.111920637000026" lat="44.031387075">
</rtept>
<rtept lon="0.102362534000008" lat="44.02751184">
</rtept>
<rtept lon="0.0926556530000084" lat="44.024417083">
</rtept>
<rtept lon="0.0805337180000265" lat="44.022406631">
</rtept>
<rtept lon="0.0700165829999833" lat="44.021617537">
</rtept>
<rtept lon="0.0668686800000273" lat="44.020770716">
</rtept>
<rtept lon="0.0588598979999801" lat="44.016515402">
</rtept>
<rtept lon="0.038818531000004" lat="44.006004692">
</rtept>
<rtept lon="0.0189869299999827" lat="43.994448608">
</rtept>
<rtept lon="0.0107113099999765" lat="43.985914188">
</rtept>
<rtept lon="0.0105116259999818" lat="43.985404225">
</rtept>
</rte>
<rte>
<rtept lon="-0.49061612600002" lat="44.42766918">
</rtept>
<rtept lon="-0.489781307999976" lat="44.429813966">
</rtept>
<rtept lon="-0.471267558000022" lat="44.432208583">
</rtept>
<rtept lon="-0.465700814999991" lat="44.434168128">
</rtept>
<rtept lon="-0.464879465000024" lat="44.434457213">
</rtept>
<rtept lon="-0.438712845999987" lat="44.443661773">
</rtept>
<rtept lon="-0.408190778999995" lat="44.454444444">
</rtept>
<rtept lon="-0.387755889999994" lat="44.45970165">
</rtept>
<rtept lon="-0.372685043999979" lat="44.457746723">
</rtept>
</rte>
<rte>
<rtept lon="0.162140109999996" lat="44.163804471">
</rtept>
<rtept lon="0.175860069999999" lat="44.147583269">
</rtept>
<rtept lon="0.174812777999989" lat="44.127226489">
</rtept>
<rtept lon="0.180029287000025" lat="44.095969822">
</rtept>
<rtept lon="0.185057233999999" lat="44.090208698">
</rtept>
</rte>
<rte>
<rtept lon="-0.305879999999945" lat="43.8938400000001">
</rtept>
<rtept lon="-0.30618347099994" lat="43.893473004">
</rtept>
<rtept lon="-0.307339045999925" lat="43.893972709">
</rtept>
<rtept lon="-0.31598170999996" lat="43.8967882800001">
</rtept>
<rtept lon="-0.319219738999948" lat="43.896449853">
</rtept>
<rtept lon="-0.322557372999938" lat="43.894772883">
</rtept>
<rtept lon="-0.327537397999947" lat="43.892127153">
</rtept>
<rtept lon="-0.33241277999997" lat="43.8889608810001">
</rtept>
<rtept lon="-0.336625172999959" lat="43.8879886130001">
</rtept>
<rtept lon="-0.34130132599995" lat="43.8874987790001">
</rtept>
<rtept lon="-0.34468979899998" lat="43.8860812500001">
</rtept>
<rtept lon="-0.34864100599998" lat="43.883807754">
</rtept>
<rtept lon="-0.35182585299998" lat="43.883208133">
</rtept>
<rtept lon="-0.358456281999963" lat="43.8833092690001">
</rtept>
<rtept lon="-0.363085442999932" lat="43.8844169870001">
</rtept>
<rtept lon="-0.374397829999964" lat="43.8858847000001">
</rtept>
<rtept lon="-0.38427878899995" lat="43.8893612430001">
</rtept>
<rtept lon="-0.394311244999926" lat="43.891758457">
</rtept>
<rtept lon="-0.401302532999978" lat="43.891818856">
</rtept>
<rtept lon="-0.407776811999952" lat="43.8911363460001">
</rtept>
<rtept lon="-0.418409403999931" lat="43.8892175670001">
</rtept>
<rtept lon="-0.424163838999959" lat="43.888609925">
</rtept>
<rtept lon="-0.429768713999977" lat="43.88908037">
</rtept>
<rtept lon="-0.435276956999928" lat="43.89088903">
</rtept>
<rtept lon="-0.43903129399996" lat="43.891288978">
</rtept>
<rtept lon="-0.446224302999951" lat="43.8905278780001">
</rtept>
<rtept lon="-0.452660384999945" lat="43.888750524">
</rtept>
<rtept lon="-0.457015401999968" lat="43.8884884030001">
</rtept>
<rtept lon="-0.461877302999937" lat="43.8893678840001">
</rtept>
<rtept lon="-0.466660257999933" lat="43.8898570040001">
</rtept>
<rtept lon="-0.471252728999957" lat="43.890764636">
</rtept>
<rtept lon="-0.47476646399997" lat="43.8917865780001">
</rtept>
<rtept lon="-0.478685422999945" lat="43.8931286060001">
</rtept>
<rtept lon="-0.478874794111381" lat="43.8930421453525">
</rtept>
<rtept lon="-0.479060881139508" lat="43.8929619300294">
</rtept>
<rtept lon="-0.479244296224126" lat="43.8928876964989">
</rtept>
<rtept lon="-0.479425502058227" lat="43.8928192579536">
</rtept>
<rtept lon="-0.479605008154756" lat="43.8927564261751">
</rtept>
<rtept lon="-0.479783044804187" lat="43.8926991248733">
</rtept>
<rtept lon="-0.47995991071965" lat="43.8926472580487">
</rtept>
<rtept lon="-0.480135850999943" lat="43.8926007540001">
</rtept>
<rtept lon="-0.480290167382602" lat="43.8925632012408">
</rtept>
<rtept lon="-0.480446854584789" lat="43.8925270365118">
</rtept>
<rtept lon="-0.480605854415306" lat="43.8924922732462">
</rtept>
<rtept lon="-0.480767106168623" lat="43.8924589247187">
</rtept>
<rtept lon="-0.480930549478947" lat="43.8924270034485">
</rtept>
<rtept lon="-0.481096117682191" lat="43.8923965224899">
</rtept>
<rtept lon="-0.481433360867322" lat="43.8923399300832">
</rtept>
<rtept lon="-0.481778312741605" lat="43.8922892362438">
</rtept>
<rtept lon="-0.482130352931033" lat="43.8922445331061">
</rtept>
<rtept lon="-0.482488866773148" lat="43.8922058987682">
</rtept>
<rtept lon="-0.48285320478722" lat="43.8921734032696">
</rtept>
<rtept lon="-0.483222892690266" lat="43.8921470941849">
</rtept>
<rtept lon="-0.4835970416825" lat="43.892127039972">
</rtept>
<rtept lon="-0.483974937068909" lat="43.8921132789596">
</rtept>
<rtept lon="-0.484355843686204" lat="43.892105837946">
</rtept>
<rtept lon="-0.484739023252664" lat="43.8921047315353">
</rtept>
<rtept lon="-0.485123712963572" lat="43.8921099621177">
</rtept>
<rtept lon="-0.485509152964252" lat="43.8921215193552">
</rtept>
<rtept lon="-0.48589458357751" lat="43.8921393804695">
</rtept>
<rtept lon="-0.486278541186782" lat="43.892163460239">
</rtept>
<rtept lon="-0.486660992681312" lat="43.8921937391727">
</rtept>
<rtept lon="-0.4870412042249" lat="43.8922301591408">
</rtept>
<rtept lon="-0.487418462406898" lat="43.8922726517805">
</rtept>
<rtept lon="-0.487792043111782" lat="43.8923211348558">
</rtept>
<rtept lon="-0.488161300199178" lat="43.8923755238341">
</rtept>
<rtept lon="-0.488525580583829" lat="43.8924357224698">
</rtept>
<rtept lon="-0.488884265438012" lat="43.8925016284515">
</rtept>
<rtept lon="-0.489236480550108" lat="43.8925730730985">
</rtept>
<rtept lon="-0.489581953500329" lat="43.892649992965">
</rtept>
<rtept lon="-0.489920148357723" lat="43.8927322686632">
</rtept>
<rtept lon="-0.490250568407342" lat="43.8928197792904">
</rtept>
<rtept lon="-0.490412697485747" lat="43.8928654539225">
</rtept>
<rtept lon="-0.490572709782195" lat="43.8929123902853">
</rtept>
<rtept lon="-0.490730551221792" lat="43.892960572515">
</rtept>
<rtept lon="-0.49088617011255" lat="43.8930099848301">
</rtept>
<rtept lon="-0.491039514389655" lat="43.8930606106625">
</rtept>
<rtept lon="-0.491190537959703" lat="43.8931124347576">
</rtept>
<rtept lon="-0.491339194267699" lat="43.8931654411378">
</rtept>
<rtept lon="-0.491485438999973" lat="43.893219614">
</rtept>
<rtept lon="-0.49820694999994" lat="43.892526694">
</rtept>
</rte>
<rte>
<rtept lon="-0.372685043999979" lat="44.457746723">
</rtept>
<rtept lon="-0.369537804000004" lat="44.457338173">
</rtept>
<rtept lon="-0.352520372000015" lat="44.456177549">
</rtept>
<rtept lon="-0.342709732000003" lat="44.448773578">
</rtept>
<rtept lon="-0.324642772000004" lat="44.441984612">
</rtept>
<rtept lon="-0.303184747999978" lat="44.438663055">
</rtept>
<rtept lon="-0.272991672999979" lat="44.438503768">
</rtept>
<rtept lon="-0.249746166000023" lat="44.434787362">
</rtept>
<rtept lon="-0.24239283999998" lat="44.429015376">
</rtept>
<rtept lon="-0.213439999999991" lat="44.43149">
</rtept>
</rte>
</gpx>
