<?xml version="1.0" encoding="UTF-8"?>
<gpx xmlns="http://www.topografix.com/GPX/1/1" creator="FME(R) 2012 SP3" version="1.1" xmlns:xsi="http://www.w3.org/2001/XMLSchema-instance" xsi:schemaLocation="http://www.topografix.com/GPX/1/1 http://www.topografix.com/GPX/1/1/gpx.xsd">
<metadata>
<time>2013-01-16T16:39:09+01:00</time>
<bounds minlat="44.447459101" minlon="1.42444428700003" maxlat="44.940909298" maxlon="1.93078928599999"/>
</metadata>
<rte>
<rtept lon="1.61835000000002" lat="44.79952">
</rtept>
<rtept lon="1.59875956500002" lat="44.799838263">
</rtept>
<rtept lon="1.574138339" lat="44.797554247">
</rtept>
<rtept lon="1.54851602299999" lat="44.792965411">
</rtept>
<rtept lon="1.54425084500002" lat="44.794212015">
</rtept>
<rtept lon="1.54034907499999" lat="44.798700009">
</rtept>
<rtept lon="1.53455201200001" lat="44.814588136">
</rtept>
</rte>
<rte>
<rtept lon="1.78439691699998" lat="44.870628154">
</rtept>
<rtept lon="1.799244047" lat="44.865019868">
</rtept>
<rtept lon="1.80302473299997" lat="44.867969314">
</rtept>
<rtept lon="1.81166424000003" lat="44.862346951">
</rtept>
<rtept lon="1.81612697100002" lat="44.867503663">
</rtept>
<rtept lon="1.81920800900002" lat="44.873638452">
</rtept>
<rtept lon="1.82782604900001" lat="44.87414384">
</rtept>
<rtept lon="1.82956962600002" lat="44.868262727">
</rtept>
<rtept lon="1.82408482099999" lat="44.859182198">
</rtept>
<rtept lon="1.81984439000001" lat="44.856212402">
</rtept>
</rte>
<rte>
<rtept lon="1.81984439000001" lat="44.856212402">
</rtept>
<rtept lon="1.79698275499999" lat="44.840192506">
</rtept>
</rte>
<rte>
<rtept lon="1.85267481800003" lat="44.8262025">
</rtept>
<rtept lon="1.86481389599999" lat="44.83622226">
</rtept>
<rtept lon="1.88330053300001" lat="44.848978995">
</rtept>
<rtept lon="1.88952657800002" lat="44.854069875">
</rtept>
<rtept lon="1.89324070800001" lat="44.860209501">
</rtept>
</rte>
<rte>
<rtept lon="1.77361826999999" lat="44.550560006">
</rtept>
<rtept lon="1.77661412499998" lat="44.553090798">
</rtept>
<rtept lon="1.77607080899998" lat="44.557763866">
</rtept>
<rtept lon="1.77933875299999" lat="44.557958064">
</rtept>
<rtept lon="1.783534578" lat="44.555162614">
</rtept>
<rtept lon="1.788498592" lat="44.556201522">
</rtept>
<rtept lon="1.79832141700001" lat="44.55192139">
</rtept>
<rtept lon="1.80383798100002" lat="44.545201455">
</rtept>
<rtept lon="1.81038216100001" lat="44.542970419">
</rtept>
<rtept lon="1.81354435100002" lat="44.536058654">
</rtept>
<rtept lon="1.81759688699998" lat="44.535785647">
</rtept>
<rtept lon="1.82795426400003" lat="44.52608195">
</rtept>
<rtept lon="1.83685403200002" lat="44.521609805">
</rtept>
<rtept lon="1.83453015700002" lat="44.512912586">
</rtept>
<rtept lon="1.83885959999998" lat="44.507030628">
</rtept>
<rtept lon="1.83495416099998" lat="44.502911381">
</rtept>
<rtept lon="1.841368789" lat="44.498154532">
</rtept>
<rtept lon="1.84176000000002" lat="44.4857">
</rtept>
</rte>
<rte>
<rtept lon="1.73406546000001" lat="44.908587366">
</rtept>
<rtept lon="1.74011103200002" lat="44.901171218">
</rtept>
<rtept lon="1.754641091" lat="44.892626099">
</rtept>
<rtept lon="1.76914857000003" lat="44.888001845">
</rtept>
<rtept lon="1.78156439499998" lat="44.88802943">
</rtept>
<rtept lon="1.79328351999999" lat="44.889770319">
</rtept>
<rtept lon="1.80811774400001" lat="44.888818843">
</rtept>
<rtept lon="1.811237151" lat="44.884656697">
</rtept>
</rte>
<rte>
<rtept lon="1.811237151" lat="44.884656697">
</rtept>
<rtept lon="1.80711454200002" lat="44.880480933">
</rtept>
<rtept lon="1.79883371300002" lat="44.881690669">
</rtept>
<rtept lon="1.79057761000001" lat="44.876770426">
</rtept>
<rtept lon="1.78439691699998" lat="44.870628154">
</rtept>
</rte>
<rte>
<rtept lon="1.58164617599999" lat="44.873669938">
</rtept>
<rtept lon="1.56299647700001" lat="44.877268665">
</rtept>
<rtept lon="1.56671244799998" lat="44.886356269">
</rtept>
<rtept lon="1.57907520800001" lat="44.892783234">
</rtept>
<rtept lon="1.58977929899999" lat="44.891356125">
</rtept>
</rte>
<rte>
<rtept lon="1.58977929899999" lat="44.891356125">
</rtept>
<rtept lon="1.60485651400001" lat="44.906576188">
</rtept>
</rte>
<rte>
<rtept lon="1.89637359900001" lat="44.713433097">
</rtept>
<rtept lon="1.91282805200001" lat="44.703708998">
</rtept>
<rtept lon="1.91569246900002" lat="44.700830354">
</rtept>
</rte>
<rte>
<rtept lon="1.64508105900001" lat="44.487382701">
</rtept>
<rtept lon="1.64368238999998" lat="44.488651958">
</rtept>
<rtept lon="1.63723394300001" lat="44.489716839">
</rtept>
<rtept lon="1.62862616000001" lat="44.490279678">
</rtept>
<rtept lon="1.621838583" lat="44.49067353">
</rtept>
<rtept lon="1.61299562400001" lat="44.489931956">
</rtept>
<rtept lon="1.60865062200003" lat="44.486358812">
</rtept>
<rtept lon="1.60583989499997" lat="44.481630949">
</rtept>
<rtept lon="1.60360025400001" lat="44.473421738">
</rtept>
<rtept lon="1.60222029300002" lat="44.468172352">
</rtept>
<rtept lon="1.59816411499997" lat="44.465585493">
</rtept>
<rtept lon="1.59343340499998" lat="44.467112614">
</rtept>
<rtept lon="1.58862482000001" lat="44.471841445">
</rtept>
<rtept lon="1.58337334599997" lat="44.476532868">
</rtept>
<rtept lon="1.57879726200002" lat="44.477109911">
</rtept>
<rtept lon="1.57357177199998" lat="44.47346085">
</rtept>
<rtept lon="1.56946454400003" lat="44.471189267">
</rtept>
<rtept lon="1.56731754899999" lat="44.471567883">
</rtept>
<rtept lon="1.56577268199999" lat="44.471840284">
</rtept>
<rtept lon="1.56431561099998" lat="44.475246754">
</rtept>
<rtept lon="1.56540619499998" lat="44.479510034">
</rtept>
<rtept lon="1.56561284999998" lat="44.483698734">
</rtept>
<rtept lon="1.56061879700002" lat="44.486806725">
</rtept>
<rtept lon="1.55251436200001" lat="44.490050265">
</rtept>
</rte>
<rte>
<rtept lon="1.61624301699999" lat="44.701529154">
</rtept>
<rtept lon="1.615264658" lat="44.713241639">
</rtept>
<rtept lon="1.60697439900002" lat="44.718601699">
</rtept>
<rtept lon="1.61823569500001" lat="44.729674333">
</rtept>
<rtept lon="1.61853936900002" lat="44.735067706">
</rtept>
<rtept lon="1.63020556200001" lat="44.738542607">
</rtept>
<rtept lon="1.63322674199998" lat="44.748848122">
</rtept>
<rtept lon="1.622868719" lat="44.754202366">
</rtept>
<rtept lon="1.62626559500001" lat="44.760097739">
</rtept>
<rtept lon="1.61657065499998" lat="44.768395355">
</rtept>
<rtept lon="1.62442506100001" lat="44.776513912">
</rtept>
<rtept lon="1.62264659900001" lat="44.784351303">
</rtept>
<rtept lon="1.61471010899999" lat="44.787017733">
</rtept>
<rtept lon="1.61835000000002" lat="44.79952">
</rtept>
</rte>
<rte>
<rtept lon="1.672596564" lat="44.939225776">
</rtept>
<rtept lon="1.67131037199999" lat="44.924509484">
</rtept>
</rte>
<rte>
<rtept lon="1.67131037199999" lat="44.924509484">
</rtept>
<rtept lon="1.68234839299998" lat="44.925525535">
</rtept>
<rtept lon="1.69406244800001" lat="44.928994426">
</rtept>
<rtept lon="1.70684180000001" lat="44.92756106">
</rtept>
<rtept lon="1.71999649899999" lat="44.920487595">
</rtept>
<rtept lon="1.73073604699999" lat="44.912670557">
</rtept>
<rtept lon="1.73406546000001" lat="44.908587366">
</rtept>
</rte>
<rte>
<rtept lon="1.91569246900002" lat="44.700830354">
</rtept>
<rtept lon="1.90272726900002" lat="44.694651623">
</rtept>
<rtept lon="1.89110607100002" lat="44.685692129">
</rtept>
<rtept lon="1.88376822599997" lat="44.680927851">
</rtept>
<rtept lon="1.87504954500002" lat="44.676371978">
</rtept>
<rtept lon="1.87092259799999" lat="44.671225004">
</rtept>
<rtept lon="1.864385701" lat="44.664278189">
</rtept>
<rtept lon="1.85332283499997" lat="44.65471744">
</rtept>
<rtept lon="1.843190531" lat="44.647797744">
</rtept>
<rtept lon="1.83501405499999" lat="44.645527966">
</rtept>
<rtept lon="1.82704093900003" lat="44.641990689">
</rtept>
<rtept lon="1.82104596900001" lat="44.63733078">
</rtept>
<rtept lon="1.81682615400001" lat="44.63281542">
</rtept>
<rtept lon="1.81418442699999" lat="44.627210835">
</rtept>
<rtept lon="1.81030924700002" lat="44.624670138">
</rtept>
<rtept lon="1.80582687600003" lat="44.616206668">
</rtept>
<rtept lon="1.79484845799999" lat="44.608218973">
</rtept>
<rtept lon="1.78558266599998" lat="44.604123516">
</rtept>
<rtept lon="1.77998692800003" lat="44.602621954">
</rtept>
<rtept lon="1.77763595300002" lat="44.599092869">
</rtept>
<rtept lon="1.77167367200002" lat="44.594433081">
</rtept>
<rtept lon="1.76330927999999" lat="44.590200886">
</rtept>
<rtept lon="1.75823581600002" lat="44.587281372">
</rtept>
<rtept lon="1.75234404600002" lat="44.58763034">
</rtept>
<rtept lon="1.74682884700002" lat="44.589261087">
</rtept>
<rtept lon="1.74081498200002" lat="44.588556766">
</rtept>
<rtept lon="1.73507868399997" lat="44.584330209">
</rtept>
<rtept lon="1.73021723900001" lat="44.583720316">
</rtept>
<rtept lon="1.72111340700002" lat="44.585887305">
</rtept>
<rtept lon="1.71212104300002" lat="44.585560479">
</rtept>
<rtept lon="1.702786645" lat="44.583744815">
</rtept>
<rtept lon="1.68332937399998" lat="44.574206427">
</rtept>
<rtept lon="1.66949950600002" lat="44.568968937">
</rtept>
</rte>
<rte>
<rtept lon="1.66874345899998" lat="44.457699779">
</rtept>
<rtept lon="1.63922071299999" lat="44.462220792">
</rtept>
<rtept lon="1.63255629000003" lat="44.47022667">
</rtept>
<rtept lon="1.63212197600001" lat="44.474957142">
</rtept>
<rtept lon="1.64500470500002" lat="44.487451992">
</rtept>
<rtept lon="1.64508105900001" lat="44.487382701">
</rtept>
</rte>
<rte>
<rtept lon="1.62910712399997" lat="44.914965941">
</rtept>
<rtept lon="1.63718627200001" lat="44.918262938">
</rtept>
<rtept lon="1.638528436" lat="44.923662078">
</rtept>
<rtept lon="1.64711243900001" lat="44.930067581">
</rtept>
<rtept lon="1.66257361200002" lat="44.940909298">
</rtept>
<rtept lon="1.672596564" lat="44.939225776">
</rtept>
</rte>
<rte>
<rtept lon="1.66949950600002" lat="44.568968937">
</rtept>
<rtept lon="1.67573064200002" lat="44.554662545">
</rtept>
<rtept lon="1.665515046" lat="44.544828878">
</rtept>
<rtept lon="1.67205377200003" lat="44.540195407">
</rtept>
<rtept lon="1.66695520899998" lat="44.534053685">
</rtept>
<rtept lon="1.65838924500002" lat="44.534514924">
</rtept>
<rtept lon="1.65776293099998" lat="44.525692987">
</rtept>
<rtept lon="1.64209026899999" lat="44.514123875">
</rtept>
<rtept lon="1.65613000000002" lat="44.50559">
</rtept>
</rte>
<rte>
<rtept lon="1.79698275499999" lat="44.840192506">
</rtept>
<rtept lon="1.81086496400002" lat="44.835224972">
</rtept>
</rte>
<rte>
<rtept lon="1.92541515300002" lat="44.728144688">
</rtept>
<rtept lon="1.91597772300003" lat="44.724595822">
</rtept>
<rtept lon="1.91351972500001" lat="44.720226794">
</rtept>
<rtept lon="1.90962880000001" lat="44.716383936">
</rtept>
<rtept lon="1.90543699900002" lat="44.71444175">
</rtept>
<rtept lon="1.89637359900001" lat="44.713433097">
</rtept>
</rte>
<rte>
<rtept lon="1.55251436200001" lat="44.490050265">
</rtept>
<rtept lon="1.54588229900003" lat="44.475517774">
</rtept>
<rtept lon="1.54576728400002" lat="44.470920396">
</rtept>
<rtept lon="1.54120600900001" lat="44.470325821">
</rtept>
<rtept lon="1.53285866900001" lat="44.471495581">
</rtept>
<rtept lon="1.52652522300002" lat="44.469290393">
</rtept>
<rtept lon="1.52328890199999" lat="44.468296363">
</rtept>
<rtept lon="1.51433209499999" lat="44.465544563">
</rtept>
<rtept lon="1.503439082" lat="44.465288728">
</rtept>
<rtept lon="1.488100524" lat="44.468370643">
</rtept>
<rtept lon="1.477029641" lat="44.474465024">
</rtept>
<rtept lon="1.46688850599998" lat="44.475893578">
</rtept>
<rtept lon="1.45047193099998" lat="44.47303026">
</rtept>
<rtept lon="1.441326678" lat="44.468493103">
</rtept>
<rtept lon="1.43934629099999" lat="44.463234022">
</rtept>
<rtept lon="1.43671359899997" lat="44.45624106">
</rtept>
</rte>
<rte>
<rtept lon="1.481126555" lat="44.633758649">
</rtept>
<rtept lon="1.492580143" lat="44.633332047">
</rtept>
<rtept lon="1.506957672" lat="44.632853823">
</rtept>
<rtept lon="1.51713426399999" lat="44.629849943">
</rtept>
<rtept lon="1.52422678300002" lat="44.630450197">
</rtept>
<rtept lon="1.53117954200002" lat="44.631894092">
</rtept>
<rtept lon="1.53660089300001" lat="44.635348049">
</rtept>
<rtept lon="1.54379646899997" lat="44.638951414">
</rtept>
<rtept lon="1.55349751799997" lat="44.641909452">
</rtept>
<rtept lon="1.56890326799999" lat="44.646630459">
</rtept>
<rtept lon="1.57766786399998" lat="44.651647038">
</rtept>
<rtept lon="1.58706069200002" lat="44.660139244">
</rtept>
<rtept lon="1.59551764899999" lat="44.670691889">
</rtept>
<rtept lon="1.60546197600002" lat="44.687013518">
</rtept>
</rte>
<rte>
<rtept lon="1.53455201200001" lat="44.814588136">
</rtept>
<rtept lon="1.54349044600002" lat="44.822020844">
</rtept>
<rtept lon="1.54204468199998" lat="44.829613969">
</rtept>
<rtept lon="1.55340841600002" lat="44.830155157">
</rtept>
<rtept lon="1.55508181699997" lat="44.835801084">
</rtept>
<rtept lon="1.55091305399998" lat="44.839705142">
</rtept>
<rtept lon="1.558097836" lat="44.845620639">
</rtept>
<rtept lon="1.56736452799998" lat="44.850073649">
</rtept>
<rtept lon="1.56729399099999" lat="44.858408943">
</rtept>
<rtept lon="1.56862306400001" lat="44.864298662">
</rtept>
<rtept lon="1.573102371" lat="44.864562851">
</rtept>
<rtept lon="1.58098675899998" lat="44.869989607">
</rtept>
<rtept lon="1.58164617599999" lat="44.873669938">
</rtept>
</rte>
<rte>
<rtept lon="1.60485651400001" lat="44.906576188">
</rtept>
<rtept lon="1.609288795" lat="44.911048402">
</rtept>
<rtept lon="1.61823041899999" lat="44.91500564">
</rtept>
<rtept lon="1.62445597999999" lat="44.913067393">
</rtept>
<rtept lon="1.62910712399997" lat="44.914965941">
</rtept>
</rte>
<rte>
<rtept lon="1.81086496400002" lat="44.835224972">
</rtept>
<rtept lon="1.81690565100001" lat="44.838337936">
</rtept>
<rtept lon="1.826999301" lat="44.839158576">
</rtept>
<rtept lon="1.832801378" lat="44.840485758">
</rtept>
</rte>
<rte>
<rtept lon="1.832801378" lat="44.840485758">
</rtept>
<rtept lon="1.83863455400001" lat="44.836161678">
</rtept>
<rtept lon="1.85245903999999" lat="44.826024347">
</rtept>
<rtept lon="1.85267481800003" lat="44.8262025">
</rtept>
</rte>
<rte>
<rtept lon="1.43671359900003" lat="44.45624106">
</rtept>
<rtept lon="1.43129771300005" lat="44.4605421970001">
</rtept>
<rtept lon="1.42821718400006" lat="44.4663293150001">
</rtept>
<rtept lon="1.42717003863025" lat="44.466610784345">
</rtept>
<rtept lon="1.42667877109588" lat="44.4667465036289">
</rtept>
<rtept lon="1.42620492578683" lat="44.4668800099391">
</rtept>
<rtept lon="1.42574553191308" lat="44.467012147185">
</rtept>
<rtept lon="1.42529980355125" lat="44.4671431486787">
</rtept>
<rtept lon="1.42486639064994" lat="44.4672734113929">
</rtept>
<rtept lon="1.42444428700003" lat="44.467403238">
</rtept>
<rtept lon="1.42662587300003" lat="44.4693182520001">
</rtept>
<rtept lon="1.43202608600006" lat="44.475476707">
</rtept>
<rtept lon="1.43592170300002" lat="44.4799182630001">
</rtept>
<rtept lon="1.43737434000008" lat="44.492139971">
</rtept>
<rtept lon="1.44113612400002" lat="44.5010138160001">
</rtept>
<rtept lon="1.45699039300007" lat="44.5230192590001">
</rtept>
<rtept lon="1.46992933600006" lat="44.5380987790001">
</rtept>
<rtept lon="1.47576834900002" lat="44.5450626730001">
</rtept>
<rtept lon="1.47564781900007" lat="44.5473486710001">
</rtept>
<rtept lon="1.47536321100006" lat="44.552745901">
</rtept>
<rtept lon="1.47251944000004" lat="44.561055851">
</rtept>
<rtept lon="1.47335826400007" lat="44.5805269840001">
</rtept>
<rtept lon="1.48040879500007" lat="44.5855079410001">
</rtept>
<rtept lon="1.49519030100004" lat="44.586138991">
</rtept>
<rtept lon="1.49657351200005" lat="44.5861737700001">
</rtept>
<rtept lon="1.50216653800004" lat="44.586314208">
</rtept>
<rtept lon="1.51258449500006" lat="44.590168476">
</rtept>
<rtept lon="1.52245837000004" lat="44.5959609940001">
</rtept>
<rtept lon="1.52293863200003" lat="44.6053884150001">
</rtept>
<rtept lon="1.51752705000007" lat="44.6116053970001">
</rtept>
<rtept lon="1.51103538800004" lat="44.6137672500001">
</rtept>
<rtept lon="1.49828815700005" lat="44.6175583690001">
</rtept>
<rtept lon="1.48710765300007" lat="44.6254655120001">
</rtept>
<rtept lon="1.48653104900006" lat="44.6258732050001">
</rtept>
<rtept lon="1.48112655500006" lat="44.6337586490001">
</rtept>
</rte>
<rte>
<rtept lon="1.60546197600002" lat="44.687013518">
</rtept>
<rtept lon="1.60847450900002" lat="44.694031834">
</rtept>
<rtept lon="1.61624301699999" lat="44.701529154">
</rtept>
</rte>
<rte>
<rtept lon="1.89324070800001" lat="44.860209501">
</rtept>
<rtept lon="1.901163618" lat="44.846306792">
</rtept>
<rtept lon="1.90726427800001" lat="44.841983631">
</rtept>
<rtept lon="1.90758205700001" lat="44.8343068">
</rtept>
<rtept lon="1.90294343599999" lat="44.829440477">
</rtept>
<rtept lon="1.89810410400003" lat="44.825841467">
</rtept>
<rtept lon="1.89276980800003" lat="44.822523227">
</rtept>
<rtept lon="1.89243412500002" lat="44.818965946">
</rtept>
<rtept lon="1.889670959" lat="44.816496631">
</rtept>
<rtept lon="1.88468237199999" lat="44.813847646">
</rtept>
<rtept lon="1.88385173199998" lat="44.810571326">
</rtept>
<rtept lon="1.88579258999999" lat="44.806876882">
</rtept>
<rtept lon="1.89040344900002" lat="44.803397867">
</rtept>
<rtept lon="1.89241130599999" lat="44.79361147">
</rtept>
<rtept lon="1.89771729500001" lat="44.788583893">
</rtept>
<rtept lon="1.89837199700003" lat="44.784464928">
</rtept>
<rtept lon="1.89670160100002" lat="44.780800344">
</rtept>
<rtept lon="1.90066319499999" lat="44.778552526">
</rtept>
<rtept lon="1.90615223100002" lat="44.778032097">
</rtept>
<rtept lon="1.91381510000002" lat="44.778007215">
</rtept>
<rtept lon="1.923013309" lat="44.776821627">
</rtept>
<rtept lon="1.92885305900001" lat="44.774082027">
</rtept>
<rtept lon="1.93078928599999" lat="44.770387001">
</rtept>
<rtept lon="1.929662081" lat="44.766125096">
</rtept>
<rtept lon="1.92591695300001" lat="44.761331966">
</rtept>
<rtept lon="1.92301167800002" lat="44.756927091">
</rtept>
<rtept lon="1.92258092899999" lat="44.751116814">
</rtept>
<rtept lon="1.92288890999998" lat="44.7463286">
</rtept>
<rtept lon="1.92088086899997" lat="44.739108124">
</rtept>
<rtept lon="1.92168357100002" lat="44.734038974">
</rtept>
<rtept lon="1.92574750599999" lat="44.728269642">
</rtept>
<rtept lon="1.92541515300002" lat="44.728144688">
</rtept>
</rte>
<rte>
<rtept lon="1.65613000000002" lat="44.50559">
</rtept>
<rtept lon="1.66641960800001" lat="44.511022804">
</rtept>
<rtept lon="1.67256640800002" lat="44.513492878">
</rtept>
<rtept lon="1.67184884099999" lat="44.518635262">
</rtept>
<rtept lon="1.67765592500001" lat="44.520858962">
</rtept>
<rtept lon="1.686935597" lat="44.515253588">
</rtept>
<rtept lon="1.700602436" lat="44.520194998">
</rtept>
<rtept lon="1.70919611199997" lat="44.514340551">
</rtept>
<rtept lon="1.71737818999998" lat="44.520733568">
</rtept>
<rtept lon="1.72594916000003" lat="44.518797408">
</rtept>
<rtept lon="1.73070310600002" lat="44.526404941">
</rtept>
<rtept lon="1.74608110399998" lat="44.533059797">
</rtept>
<rtept lon="1.75429182400001" lat="44.535040171">
</rtept>
<rtept lon="1.75392702800002" lat="44.539694224">
</rtept>
<rtept lon="1.763464263" lat="44.55147719">
</rtept>
<rtept lon="1.76824563399998" lat="44.553352309">
</rtept>
<rtept lon="1.77361826999999" lat="44.550560006">
</rtept>
</rte>
<rte>
<rtept lon="1.84176000000002" lat="44.4857">
</rtept>
<rtept lon="1.83451225599998" lat="44.477127682">
</rtept>
<rtept lon="1.83333837800001" lat="44.473479325">
</rtept>
<rtept lon="1.82093545499998" lat="44.462507611">
</rtept>
<rtept lon="1.818654815" lat="44.456575613">
</rtept>
</rte>
<rte>
<rtept lon="1.818654815" lat="44.456575613">
</rtept>
<rtept lon="1.81083029000001" lat="44.456381778">
</rtept>
<rtept lon="1.80321467599998" lat="44.45851798">
</rtept>
<rtept lon="1.79742346500001" lat="44.454778329">
</rtept>
<rtept lon="1.78762370800001" lat="44.452463849">
</rtept>
<rtept lon="1.77861009899999" lat="44.453734865">
</rtept>
<rtept lon="1.767999057" lat="44.453997672">
</rtept>
<rtept lon="1.75579526199999" lat="44.45239144">
</rtept>
<rtept lon="1.74579270700002" lat="44.451076105">
</rtept>
<rtept lon="1.72938151599999" lat="44.450459636">
</rtept>
<rtept lon="1.721351406" lat="44.454739322">
</rtept>
<rtept lon="1.70974701099999" lat="44.453559314">
</rtept>
<rtept lon="1.69676977099999" lat="44.447642017">
</rtept>
<rtept lon="1.68396045100002" lat="44.447459101">
</rtept>
<rtept lon="1.66874345899998" lat="44.457699779">
</rtept>
</rte>
</gpx>
