<?xml version="1.0" encoding="UTF-8"?>
<gpx xmlns="http://www.topografix.com/GPX/1/1" creator="FME(R) 2012 SP3" version="1.1" xmlns:xsi="http://www.w3.org/2001/XMLSchema-instance" xsi:schemaLocation="http://www.topografix.com/GPX/1/1 http://www.topografix.com/GPX/1/1/gpx.xsd">
<metadata>
<time>2013-01-16T16:38:21+01:00</time>
<bounds minlat="46.730234744" minlon="2.81476189599999" maxlat="47.341755737" maxlon="3.42510351800001"/>
</metadata>
<rte>
<rtept lon="2.832826528" lat="47.332062937">
</rtept>
<rtept lon="2.819727833" lat="47.321564823">
</rtept>
<rtept lon="2.81476189599999" lat="47.316719727">
</rtept>
</rte>
<rte>
<rtept lon="2.96761103900002" lat="46.977022192">
</rtept>
<rtept lon="2.96422165400003" lat="46.968332874">
</rtept>
<rtept lon="2.95877715400002" lat="46.963207126">
</rtept>
<rtept lon="2.94710347400002" lat="46.952293749">
</rtept>
<rtept lon="2.94442572200001" lat="46.94415665">
</rtept>
<rtept lon="2.94204023399999" lat="46.937884197">
</rtept>
<rtept lon="2.94077555899997" lat="46.933617303">
</rtept>
<rtept lon="2.94588404299998" lat="46.930745408">
</rtept>
<rtept lon="2.94857536000001" lat="46.928353675">
</rtept>
<rtept lon="2.94971930200001" lat="46.92038958">
</rtept>
<rtept lon="2.95010864699998" lat="46.907871735">
</rtept>
<rtept lon="2.94967091299998" lat="46.905844195">
</rtept>
<rtept lon="2.94962010199998" lat="46.905608829">
</rtept>
<rtept lon="2.94700891399998" lat="46.893510584">
</rtept>
<rtept lon="2.94331619399998" lat="46.883290683">
</rtept>
<rtept lon="2.93990641099998" lat="46.87437634">
</rtept>
<rtept lon="2.936641786" lat="46.867723122">
</rtept>
<rtept lon="2.93518973300002" lat="46.861514046">
</rtept>
<rtept lon="2.937727188" lat="46.853645111">
</rtept>
<rtept lon="2.93817814499999" lat="46.847243259">
</rtept>
<rtept lon="2.935615068" lat="46.842245665">
</rtept>
<rtept lon="2.931527878" lat="46.839610787">
</rtept>
</rte>
<rte>
<rtept lon="2.93837334699998" lat="46.730234744">
</rtept>
<rtept lon="2.94575881399999" lat="46.736898149">
</rtept>
<rtept lon="2.95385885000002" lat="46.74130479">
</rtept>
<rtept lon="2.962881428" lat="46.743629336">
</rtept>
<rtept lon="2.976786323" lat="46.746710873">
</rtept>
<rtept lon="2.99020941800001" lat="46.753187873">
</rtept>
<rtept lon="3.00258118400001" lat="46.758306253">
</rtept>
<rtept lon="3.012784829" lat="46.761134169">
</rtept>
<rtept lon="3.02181379899997" lat="46.763453702">
</rtept>
<rtept lon="3.02990812600001" lat="46.763566375">
</rtept>
<rtept lon="3.039206767" lat="46.757917724">
</rtept>
<rtept lon="3.04714384099998" lat="46.758512125">
</rtept>
<rtept lon="3.04847573199999" lat="46.758611809">
</rtept>
<rtept lon="3.063960479" lat="46.765408289">
</rtept>
<rtept lon="3.08545792899997" lat="46.776695692">
</rtept>
<rtept lon="3.10052024399999" lat="46.784980726">
</rtept>
<rtept lon="3.11953592700002" lat="46.791809423">
</rtept>
<rtept lon="3.138209631" lat="46.795571985">
</rtept>
</rte>
<rte>
<rtept lon="3.16423171299999" lat="46.884085077">
</rtept>
<rtept lon="3.164025745" lat="46.88834818">
</rtept>
<rtept lon="3.17599281899999" lat="46.893997658">
</rtept>
<rtept lon="3.18225410299999" lat="46.892198536">
</rtept>
<rtept lon="3.19568507999998" lat="46.900113576">
</rtept>
<rtept lon="3.20649979199999" lat="46.904023422">
</rtept>
<rtept lon="3.22044030400002" lat="46.915243138">
</rtept>
<rtept lon="3.22982489200001" lat="46.920608023">
</rtept>
<rtept lon="3.23482207000001" lat="46.927032346">
</rtept>
<rtept lon="3.236195544" lat="46.931482296">
</rtept>
<rtept lon="3.24043680800003" lat="46.932872932">
</rtept>
<rtept lon="3.25421706700001" lat="46.937175292">
</rtept>
<rtept lon="3.26367930700002" lat="46.937061764">
</rtept>
<rtept lon="3.26787731399997" lat="46.93672298">
</rtept>
</rte>
<rte>
<rtept lon="3.39475246199999" lat="47.001549738">
</rtept>
<rtept lon="3.39948000999999" lat="47.011814083">
</rtept>
<rtept lon="3.40874276300002" lat="47.02332805">
</rtept>
<rtept lon="3.41431187299997" lat="47.029043434">
</rtept>
<rtept lon="3.414267876" lat="47.028998287">
</rtept>
<rtept lon="3.41741982600001" lat="47.032232332">
</rtept>
<rtept lon="3.41906628599997" lat="47.037479741">
</rtept>
<rtept lon="3.41846214200001" lat="47.045479465">
</rtept>
<rtept lon="3.41875260199998" lat="47.050320327">
</rtept>
<rtept lon="3.422056209" lat="47.053742692">
</rtept>
<rtept lon="3.42510351800001" lat="47.059077941">
</rtept>
<rtept lon="3.42314739" lat="47.063134976">
</rtept>
<rtept lon="3.41604845500001" lat="47.073942827">
</rtept>
<rtept lon="3.414204676" lat="47.08765274">
</rtept>
<rtept lon="3.41099153699997" lat="47.108029338">
</rtept>
<rtept lon="3.40957456899997" lat="47.118551338">
</rtept>
<rtept lon="3.40807649200002" lat="47.126174469">
</rtept>
<rtept lon="3.402163589" lat="47.131591129">
</rtept>
<rtept lon="3.40109416899998" lat="47.13602574">
</rtept>
<rtept lon="3.40197981" lat="47.139940078">
</rtept>
<rtept lon="3.40269353299999" lat="47.14512987">
</rtept>
</rte>
<rte>
<rtept lon="3.32754209900003" lat="47.178226142">
</rtept>
<rtept lon="3.32241863799999" lat="47.18465464">
</rtept>
<rtept lon="3.31840372599999" lat="47.189867016">
</rtept>
<rtept lon="3.299995964" lat="47.210566375">
</rtept>
<rtept lon="3.29248186199999" lat="47.217163507">
</rtept>
<rtept lon="3.28531652800001" lat="47.221209385">
</rtept>
<rtept lon="3.277857568" lat="47.223949513">
</rtept>
<rtept lon="3.27392254699998" lat="47.228522795">
</rtept>
<rtept lon="3.26849453099999" lat="47.23364382">
</rtept>
<rtept lon="3.26651844999998" lat="47.237698966">
</rtept>
<rtept lon="3.26568787799999" lat="47.238763409">
</rtept>
<rtept lon="3.26651844999998" lat="47.237698966">
</rtept>
<rtept lon="3.26364967000001" lat="47.241375317">
</rtept>
<rtept lon="3.25631859200001" lat="47.243157456">
</rtept>
<rtept lon="3.248210003" lat="47.247140956">
</rtept>
<rtept lon="3.24099245999997" lat="47.251502844">
</rtept>
<rtept lon="3.23598256399998" lat="47.256971279">
</rtept>
<rtept lon="3.23349027099999" lat="47.261314693">
</rtept>
<rtept lon="3.23291535700002" lat="47.265459674">
</rtept>
<rtept lon="3.23280878200001" lat="47.269634786">
</rtept>
<rtept lon="3.23091678399999" lat="47.273051776">
</rtept>
<rtept lon="3.22804325700002" lat="47.276727345">
</rtept>
<rtept lon="3.22789196500003" lat="47.281221369">
</rtept>
<rtept lon="3.22428334199998" lat="47.286779861">
</rtept>
<rtept lon="3.216988378" lat="47.288240531">
</rtept>
<rtept lon="3.20998399500002" lat="47.291006299">
</rtept>
<rtept lon="3.20181924299999" lat="47.295305357">
</rtept>
<rtept lon="3.193763037" lat="47.295428561">
</rtept>
<rtept lon="3.18369844900002" lat="47.29638638">
</rtept>
<rtept lon="3.17064283600001" lat="47.298436314">
</rtept>
<rtept lon="3.16665678300001" lat="47.299542952">
</rtept>
</rte>
<rte>
<rtept lon="2.91118574000001" lat="47.157887559">
</rtept>
<rtept lon="2.91913963799999" lat="47.145453451">
</rtept>
<rtept lon="2.92329127099998" lat="47.142837414">
</rtept>
<rtept lon="2.92622587099999" lat="47.138852224">
</rtept>
<rtept lon="2.92687130600001" lat="47.134391055">
</rtept>
<rtept lon="2.927141898" lat="47.129261151">
</rtept>
<rtept lon="2.92834614600002" lat="47.124194193">
</rtept>
<rtept lon="2.93141738600002" lat="47.119253022">
</rtept>
<rtept lon="2.93210813799999" lat="47.114473303">
</rtept>
<rtept lon="2.93195739700002" lat="47.108993458">
</rtept>
<rtept lon="2.93409398599999" lat="47.103989449">
</rtept>
<rtept lon="2.93800464499998" lat="47.09974836">
</rtept>
<rtept lon="2.94238122100001" lat="47.095538542">
</rtept>
<rtept lon="2.94535738100001" lat="47.091234454">
</rtept>
<rtept lon="2.94609230899999" lat="47.086136202">
</rtept>
<rtept lon="2.94962584500001" lat="47.081226147">
</rtept>
<rtept lon="2.95428273300001" lat="47.078321852">
</rtept>
<rtept lon="2.96075889899998" lat="47.075861242">
</rtept>
<rtept lon="2.97030737599999" lat="47.071675999">
</rtept>
<rtept lon="2.97076213700001" lat="47.071420814">
</rtept>
<rtept lon="2.97030737599999" lat="47.071675999">
</rtept>
<rtept lon="2.97491640800001" lat="47.069089474">
</rtept>
<rtept lon="2.97946985599998" lat="47.063603737">
</rtept>
<rtept lon="2.98150828399997" lat="47.059236385">
</rtept>
<rtept lon="2.98578623899999" lat="47.055662296">
</rtept>
<rtept lon="2.98815310999998" lat="47.052281982">
</rtept>
<rtept lon="2.99289615499998" lat="47.048738822">
</rtept>
</rte>
<rte>
<rtept lon="3.16665678300001" lat="47.299542952">
</rtept>
<rtept lon="3.16154232899999" lat="47.297355392">
</rtept>
<rtept lon="3.12673613700002" lat="47.294849475">
</rtept>
<rtept lon="3.10364145800003" lat="47.294804981">
</rtept>
<rtept lon="3.076431576" lat="47.296327779">
</rtept>
<rtept lon="3.04352439199999" lat="47.297289723">
</rtept>
<rtept lon="3.03861553399997" lat="47.295608413">
</rtept>
<rtept lon="3.020871591" lat="47.287997876">
</rtept>
<rtept lon="3.01300542400003" lat="47.28663223">
</rtept>
<rtept lon="3.00771966500002" lat="47.287115201">
</rtept>
<rtept lon="2.99072104200002" lat="47.284537406">
</rtept>
<rtept lon="2.97238540400002" lat="47.279372945">
</rtept>
</rte>
<rte>
<rtept lon="2.99289615499998" lat="47.048738822">
</rtept>
<rtept lon="2.98762139399997" lat="47.04613426">
</rtept>
<rtept lon="2.98183541200001" lat="47.043816871">
</rtept>
</rte>
<rte>
<rtept lon="2.97238540400002" lat="47.279372945">
</rtept>
<rtept lon="2.97255772900007" lat="47.2786219560001">
</rtept>
<rtept lon="2.97248337595512" lat="47.2789375132969">
</rtept>
<rtept lon="2.97240868249712" lat="47.2792674607054">
</rtept>
<rtept lon="2.97233291602203" lat="47.2796150200056">
</rtept>
<rtept lon="2.97225472301444" lat="47.2799863927345">
</rtept>
<rtept lon="2.97210976412246" lat="47.2807031686081">
</rtept>
<rtept lon="2.97184747773383" lat="47.2820427468232">
</rtept>
<rtept lon="2.97174088849192" lat="47.2825786561626">
</rtept>
<rtept lon="2.97162750247241" lat="47.2831301620943">
</rtept>
<rtept lon="2.97152111085597" lat="47.2836246053944">
</rtept>
<rtept lon="2.97145732280936" lat="47.2839089748986">
</rtept>
<rtept lon="2.97139395605864" lat="47.2841820882064">
</rtept>
<rtept lon="2.97133058297174" lat="47.2844457867222">
</rtept>
<rtept lon="2.9712669107328" lat="47.2847012862962">
</rtept>
<rtept lon="2.97120260075657" lat="47.2849499268782">
</rtept>
<rtept lon="2.97113753983227" lat="47.285192127299">
</rtept>
<rtept lon="2.97107155298144" lat="47.2854285384447">
</rtept>
<rtept lon="2.97100450127309" lat="47.2856596574206">
</rtept>
<rtept lon="2.9709199125401" lat="47.2859388259254">
</rtept>
<rtept lon="2.97083329977615" lat="47.2862112313011">
</rtept>
<rtept lon="2.97074448066681" lat="47.2864774464334">
</rtept>
<rtept lon="2.9706533047985" lat="47.2867379215236">
</rtept>
<rtept lon="2.97055960070924" lat="47.2869931402449">
</rtept>
<rtept lon="2.97046327568302" lat="47.2872433490523">
</rtept>
<rtept lon="2.9703642144654" lat="47.2874888471141">
</rtept>
<rtept lon="2.97026231662558" lat="47.2877298830776">
</rtept>
<rtept lon="2.97015733217349" lat="47.2879670239609">
</rtept>
<rtept lon="2.97004931984926" lat="47.2882001134013">
</rtept>
<rtept lon="2.96993819620736" lat="47.2884293313714">
</rtept>
<rtept lon="2.96982388616359" lat="47.2886548326352">
</rtept>
<rtept lon="2.9697063064463" lat="47.2888767801147">
</rtept>
<rtept lon="2.96958540005104" lat="47.2890952800913">
</rtept>
<rtept lon="2.96946110184902" lat="47.2893104502104">
</rtept>
<rtept lon="2.96933335200004" lat="47.2895223940001">
</rtept>
<rtept lon="2.96917041463917" lat="47.2897835957787">
</rtept>
<rtept lon="2.96900240345895" lat="47.2900461391572">
</rtept>
<rtept lon="2.96882927949447" lat="47.2903100850408">
</rtept>
<rtept lon="2.96865099872589" lat="47.2905755005569">
</rtept>
<rtept lon="2.96846751976755" lat="47.2908424476284">
</rtept>
<rtept lon="2.96827878357332" lat="47.2911110124617">
</rtept>
<rtept lon="2.96808473263386" lat="47.2913812769127">
</rtept>
<rtept lon="2.96788530132283" lat="47.291653332402">
</rtept>
<rtept lon="2.96768051154887" lat="47.2919271527772">
</rtept>
<rtept lon="2.96747019463964" lat="47.2922029671989">
</rtept>
<rtept lon="2.96725426320358" lat="47.292480890306">
</rtept>
<rtept lon="2.96703261603475" lat="47.2927610523871">
</rtept>
<rtept lon="2.96680516192641" lat="47.2930435693623">
</rtept>
<rtept lon="2.96657175535581" lat="47.2933286225969">
</rtept>
<rtept lon="2.96633225704693" lat="47.2936163822349">
</rtept>
<rtept lon="2.96608650214316" lat="47.293907046395">
</rtept>
<rtept lon="2.96583796852181" lat="47.2941965978374">
</rtept>
<rtept lon="2.96558297393589" lat="47.2944894198144">
</rtept>
<rtept lon="2.96532129068525" lat="47.2947857738862">
</rtept>
<rtept lon="2.96505264086987" lat="47.2950859748387">
</rtept>
<rtept lon="2.9647767975794" lat="47.2953902780641">
</rtept>
<rtept lon="2.96449329892142" lat="47.2956991948741">
</rtept>
<rtept lon="2.96420171317338" lat="47.2960131958708">
</rtept>
<rtept lon="2.96390148378126" lat="47.2963328805242">
</rtept>
<rtept lon="2.96359455274462" lat="47.2966562244307">
</rtept>
<rtept lon="2.96327766330423" lat="47.2969867004684">
</rtept>
<rtept lon="2.96294984844658" lat="47.2973253175837">
</rtept>
<rtept lon="2.96260972585982" lat="47.2976735039629">
</rtept>
<rtept lon="2.96188740889527" lat="47.2984038852373">
</rtept>
<rtept lon="2.96108331700003" lat="47.2992055600001">
</rtept>
<rtept lon="2.96035448385403" lat="47.2999260454014">
</rtept>
<rtept lon="2.95979327873285" lat="47.3004766349065">
</rtept>
<rtept lon="2.95933181945605" lat="47.300923910796">
</rtept>
<rtept lon="2.95894272907718" lat="47.3012943470371">
</rtept>
<rtept lon="2.95860001208138" lat="47.3016125047263">
</rtept>
<rtept lon="2.95844353693993" lat="47.3017542373488">
</rtept>
<rtept lon="2.95829465513146" lat="47.301886524821">
</rtept>
<rtept lon="2.95815178207031" lat="47.3020107759188">
</rtept>
<rtept lon="2.95801332534792" lat="47.3021283762453">
</rtept>
<rtept lon="2.95787774035303" lat="47.3022406380674">
</rtept>
<rtept lon="2.95774339890708" lat="47.3023489096896">
</rtept>
<rtept lon="2.95756020265155" lat="47.3024917789924">
</rtept>
<rtept lon="2.95737118102083" lat="47.3026337159567">
</rtept>
<rtept lon="2.95717054404342" lat="47.3027790800236">
</rtept>
<rtept lon="2.95694893986697" lat="47.3029346522753">
</rtept>
<rtept lon="2.95653072757748" lat="47.3032193497657">
</rtept>
<rtept lon="2.95531558238218" lat="47.3040327166839">
</rtept>
<rtept lon="2.95468693379402" lat="47.3044594458323">
</rtept>
<rtept lon="2.95427028382519" lat="47.3047456287248">
</rtept>
<rtept lon="2.9538463875707" lat="47.3050394581417">
</rtept>
<rtept lon="2.95296540100003" lat="47.3056580100001">
</rtept>
<rtept lon="2.95253971329655" lat="47.3059544245239">
</rtept>
<rtept lon="2.95190453644732" lat="47.3063890805818">
</rtept>
<rtept lon="2.94856351394655" lat="47.3086542215991">
</rtept>
<rtept lon="2.94684496064175" lat="47.309826080948">
</rtept>
<rtept lon="2.94530514508197" lat="47.3108870317301">
</rtept>
<rtept lon="2.94462228792809" lat="47.3113625136751">
</rtept>
<rtept lon="2.94399298833068" lat="47.3118044428836">
</rtept>
<rtept lon="2.94332551706947" lat="47.3122782903522">
</rtept>
<rtept lon="2.94272653910829" lat="47.3127095495822">
</rtept>
<rtept lon="2.94219499258154" lat="47.3130989855163">
</rtept>
<rtept lon="2.94173032870963" lat="47.3134470009435">
</rtept>
<rtept lon="2.94152286379768" lat="47.3136056378119">
</rtept>
<rtept lon="2.94133200573756" lat="47.3137540070697">
</rtept>
<rtept lon="2.94115772852931" lat="47.3138921289359">
</rtept>
<rtept lon="2.94100001325675" lat="47.3140200184117">
</rtept>
<rtept lon="2.94085884129831" lat="47.3141376907129">
</rtept>
<rtept lon="2.94073420529338" lat="47.3142451521056">
</rtept>
<rtept lon="2.94062609626907" lat="47.3143424103319">
</rtept>
<rtept lon="2.94053450800004" lat="47.314429471">
</rtept>
<rtept lon="2.93925204906652" lat="47.3156948765901">
</rtept>
<rtept lon="2.93874377167064" lat="47.3162008915633">
</rtept>
<rtept lon="2.93827751877736" lat="47.3166687367014">
</rtept>
<rtept lon="2.93782919518459" lat="47.3171227571512">
</rtept>
<rtept lon="2.9374058216077" lat="47.3175560286894">
</rtept>
<rtept lon="2.93700277158668" lat="47.317973287538">
</rtept>
<rtept lon="2.93661736156848" lat="47.3183773147121">
</rtept>
<rtept lon="2.93623574243447" lat="47.3187828859931">
</rtept>
<rtept lon="2.93586899897702" lat="47.319178492706">
</rtept>
<rtept lon="2.93551579771246" lat="47.3195655737962">
</rtept>
<rtept lon="2.9351751870784" lat="47.3199451728359">
</rtept>
<rtept lon="2.93484614222284" lat="47.3203184385141">
</rtept>
<rtept lon="2.93452826261401" lat="47.320685832052">
</rtept>
<rtept lon="2.93422100425201" lat="47.3210479824032">
</rtept>
<rtept lon="2.93392394197878" lat="47.3214053909638">
</rtept>
<rtept lon="2.93362709702586" lat="47.3217704521433">
</rtept>
<rtept lon="2.93334041387558" lat="47.3221313427405">
</rtept>
<rtept lon="2.93306359291889" lat="47.3224884400551">
</rtept>
<rtept lon="2.93279639010545" lat="47.3228420590804">
</rtept>
<rtept lon="2.9325385510649" lat="47.3231925384364">
</rtept>
<rtept lon="2.93228993020819" lat="47.3235400780966">
</rtept>
<rtept lon="2.93205036215304" lat="47.323884909329">
</rtept>
<rtept lon="2.93181970816788" lat="47.324227231924">
</rtept>
<rtept lon="2.931597688789" lat="47.3245674720441">
</rtept>
<rtept lon="2.93138436237623" lat="47.3249055521183">
</rtept>
<rtept lon="2.9311796311139" lat="47.3252416272242">
</rtept>
<rtept lon="2.93098341151441" lat="47.3255758344799">
</rtept>
<rtept lon="2.93079561883326" lat="47.3259083191506">
</rtept>
<rtept lon="2.93061619685167" lat="47.3262391817442">
</rtept>
<rtept lon="2.93044508575105" lat="47.3265685326144">
</rtept>
<rtept lon="2.93028223400006" lat="47.3268964710001">
</rtept>
<rtept lon="2.9300913475279" lat="47.3272955009328">
</rtept>
<rtept lon="2.92990972731968" lat="47.3276865180177">
</rtept>
<rtept lon="2.92973702726029" lat="47.3280702679484">
</rtept>
<rtept lon="2.92957300214827" lat="47.3284472963221">
</rtept>
<rtept lon="2.9294173928108" lat="47.3288182059027">
</rtept>
<rtept lon="2.92927010252591" lat="47.3291832347532">
</rtept>
<rtept lon="2.92913099974542" lat="47.3295427091403">
</rtept>
<rtept lon="2.92899998514249" lat="47.3298968860786">
</rtept>
<rtept lon="2.92887681156595" lat="47.3302464676314">
</rtept>
<rtept lon="2.92876159621867" lat="47.3305911573608">
</rtept>
<rtept lon="2.92865428209831" lat="47.3309311259532">
</rtept>
<rtept lon="2.92855482499609" lat="47.3312665136564">
</rtept>
<rtept lon="2.92846318081929" lat="47.3315974715463">
</rtept>
<rtept lon="2.92837932703498" lat="47.3319240836116">
</rtept>
<rtept lon="2.9283032383131" lat="47.3322464486262">
</rtept>
<rtept lon="2.92823489500006" lat="47.3325646500001">
</rtept>
<rtept lon="2.92821034953464" lat="47.332700029914">
</rtept>
<rtept lon="2.92818754465549" lat="47.3328569071781">
</rtept>
<rtept lon="2.92816654187855" lat="47.3330348601317">
</rtept>
<rtept lon="2.92814740634742" lat="47.3332333383311">
</rtept>
<rtept lon="2.9281301922815" lat="47.3334518138245">
</rtept>
<rtept lon="2.92811497538962" lat="47.3336893638831">
</rtept>
<rtept lon="2.92810181631659" lat="47.3339450446532">
</rtept>
<rtept lon="2.92809077439963" lat="47.3342177064191">
</rtept>
<rtept lon="2.92808186015738" lat="47.3345076539016">
</rtept>
<rtept lon="2.92807518646722" lat="47.3348119198565">
</rtept>
<rtept lon="2.92807079050047" lat="47.3351288154075">
</rtept>
<rtept lon="2.92806869894329" lat="47.3354564265465">
</rtept>
<rtept lon="2.92806892545603" lat="47.3357928480052">
</rtept>
<rtept lon="2.92807146993988" lat="47.3361357348915">
</rtept>
<rtept lon="2.92807631536522" lat="47.3364827895021">
</rtept>
<rtept lon="2.9280834286099" lat="47.3368316359401">
</rtept>
<rtept lon="2.92809269888866" lat="47.3371778165402">
</rtept>
<rtept lon="2.92810409992861" lat="47.3375210916963">
</rtept>
<rtept lon="2.92811755653426" lat="47.337859199913">
</rtept>
<rtept lon="2.92813298416419" lat="47.3381900186289">
</rtept>
<rtept lon="2.92815027906496" lat="47.3385113641621">
</rtept>
<rtept lon="2.92816935110292" lat="47.338821598205">
</rtept>
<rtept lon="2.92819009677253" lat="47.3391190393948">
</rtept>
<rtept lon="2.92821241445358" lat="47.3394022328073">
</rtept>
<rtept lon="2.92823607029302" lat="47.3396684840255">
</rtept>
<rtept lon="2.92826108164529" lat="47.3399182441688">
</rtept>
<rtept lon="2.92828735152984" lat="47.3401505462932">
</rtept>
<rtept lon="2.9283147906211" lat="47.3403646020087">
</rtept>
<rtept lon="2.92834329713974" lat="47.3405596379328">
</rtept>
<rtept lon="2.92837280424412" lat="47.3407352166714">
</rtept>
<rtept lon="2.92840323436456" lat="47.3408908775495">
</rtept>
<rtept lon="2.92843451800007" lat="47.341026266">
</rtept>
</rte>
<rte>
<rtept lon="2.81476189599999" lat="47.316719727">
</rtept>
<rtept lon="2.81900387500002" lat="47.313417665">
</rtept>
<rtept lon="2.82420537299998" lat="47.313450237">
</rtept>
<rtept lon="2.82565876500001" lat="47.310008478">
</rtept>
<rtept lon="2.82397303499999" lat="47.305387245">
</rtept>
<rtept lon="2.82139761899998" lat="47.300383469">
</rtept>
<rtept lon="2.821071932" lat="47.292957981">
</rtept>
<rtept lon="2.82299415199998" lat="47.286329578">
</rtept>
<rtept lon="2.82655389299998" lat="47.28464093">
</rtept>
<rtept lon="2.83198867499999" lat="47.257330661">
</rtept>
</rte>
<rte>
<rtept lon="2.83198867499999" lat="47.257330661">
</rtept>
<rtept lon="2.85535107999999" lat="47.240308066">
</rtept>
<rtept lon="2.85674702099999" lat="47.230710983">
</rtept>
<rtept lon="2.87937170200001" lat="47.206294691">
</rtept>
<rtept lon="2.87969063399999" lat="47.202298128">
</rtept>
<rtept lon="2.89932860099998" lat="47.186689572">
</rtept>
<rtept lon="2.89741638300001" lat="47.174189814">
</rtept>
<rtept lon="2.902933932" lat="47.17013072">
</rtept>
<rtept lon="2.90650273400001" lat="47.165555514">
</rtept>
<rtept lon="2.91077718600002" lat="47.158526059">
</rtept>
<rtept lon="2.91118574000001" lat="47.157887559">
</rtept>
</rte>
<rte>
<rtept lon="3.26787731399997" lat="46.93672298">
</rtept>
<rtept lon="3.27285502199999" lat="46.942137453">
</rtept>
<rtept lon="3.27934788300001" lat="46.941049988">
</rtept>
<rtept lon="3.30061248099997" lat="46.949721192">
</rtept>
<rtept lon="3.30524723500002" lat="46.949951806">
</rtept>
<rtept lon="3.304910597" lat="46.953125661">
</rtept>
<rtept lon="3.30726257200001" lat="46.954537158">
</rtept>
<rtept lon="3.31210047600001" lat="46.954476793">
</rtept>
<rtept lon="3.32110113300001" lat="46.960559236">
</rtept>
<rtept lon="3.32590468299998" lat="46.959201968">
</rtept>
<rtept lon="3.33668492499999" lat="46.96871859">
</rtept>
<rtept lon="3.34617273800001" lat="46.969317773">
</rtept>
<rtept lon="3.35101126400002" lat="46.976891983">
</rtept>
<rtept lon="3.36645151499999" lat="46.97193745">
</rtept>
<rtept lon="3.37258970800002" lat="46.973154133">
</rtept>
<rtept lon="3.37425979900001" lat="46.9801924">
</rtept>
<rtept lon="3.38125721300003" lat="46.981973701">
</rtept>
<rtept lon="3.38743846300002" lat="46.992122373">
</rtept>
<rtept lon="3.386665505" lat="46.994582076">
</rtept>
<rtept lon="3.39475246199999" lat="47.001549738">
</rtept>
</rte>
<rte>
<rtept lon="2.92843451800002" lat="47.341026266">
</rtept>
<rtept lon="2.90953863499999" lat="47.340722407">
</rtept>
<rtept lon="2.89613033199998" lat="47.341750765">
</rtept>
<rtept lon="2.88665904300001" lat="47.341755737">
</rtept>
<rtept lon="2.88112536599999" lat="47.340738381">
</rtept>
<rtept lon="2.87754664400001" lat="47.339404349">
</rtept>
<rtept lon="2.87433867499999" lat="47.338208359">
</rtept>
<rtept lon="2.87192922000003" lat="47.338245563">
</rtept>
<rtept lon="2.86491587199998" lat="47.338353543">
</rtept>
<rtept lon="2.86490118299997" lat="47.338353769">
</rtept>
<rtept lon="2.85446407199998" lat="47.339698674">
</rtept>
</rte>
<rte>
<rtept lon="2.85446407199998" lat="47.339698674">
</rtept>
<rtept lon="2.85428050299998" lat="47.325551556">
</rtept>
<rtept lon="2.832826528" lat="47.332062937">
</rtept>
</rte>
<rte>
<rtept lon="2.98183541200001" lat="47.043816871">
</rtept>
<rtept lon="2.97683588799998" lat="47.039299985">
</rtept>
<rtept lon="2.97687234199998" lat="47.035763821">
</rtept>
<rtept lon="2.97527318099998" lat="47.030509601">
</rtept>
<rtept lon="2.97022989800001" lat="47.026311115">
</rtept>
<rtept lon="2.968403142" lat="47.022649963">
</rtept>
<rtept lon="2.97072391199998" lat="47.019588825">
</rtept>
<rtept lon="2.96940019499999" lat="47.012422946">
</rtept>
<rtept lon="2.967876746" lat="47.000096832">
</rtept>
<rtept lon="2.96786285600001" lat="46.998931146">
</rtept>
<rtept lon="2.967861524" lat="46.998819391">
</rtept>
<rtept lon="2.96769650300001" lat="46.984966057">
</rtept>
<rtept lon="2.96761103900002" lat="46.977022192">
</rtept>
</rte>
<rte>
<rtept lon="2.931527878" lat="46.839610787">
</rtept>
<rtept lon="2.92081374999998" lat="46.831665732">
</rtept>
<rtept lon="2.91622287799999" lat="46.823422827">
</rtept>
<rtept lon="2.91529850400002" lat="46.817808101">
</rtept>
<rtept lon="2.91412282099998" lat="46.816407236">
</rtept>
<rtept lon="2.91077753399998" lat="46.812420725">
</rtept>
</rte>
<rte>
<rtept lon="2.91077753399998" lat="46.812420725">
</rtept>
<rtept lon="2.91534500900002" lat="46.806727575">
</rtept>
<rtept lon="2.91632336499998" lat="46.799933123">
</rtept>
<rtept lon="2.91911864899998" lat="46.791247413">
</rtept>
<rtept lon="2.92179561699999" lat="46.783778088">
</rtept>
<rtept lon="2.92543559799998" lat="46.771483168">
</rtept>
<rtept lon="2.92936033199999" lat="46.763709865">
</rtept>
<rtept lon="2.93161940599998" lat="46.757753109">
</rtept>
<rtept lon="2.93235079200002" lat="46.75265754">
</rtept>
<rtept lon="2.93011936099998" lat="46.748647372">
</rtept>
<rtept lon="2.929598129" lat="46.742502214">
</rtept>
<rtept lon="2.93083840700001" lat="46.737119739">
</rtept>
<rtept lon="2.93837334699998" lat="46.730234744">
</rtept>
</rte>
<rte>
<rtept lon="3.13820963100005" lat="46.795571985">
</rtept>
<rtept lon="3.13804548296583" lat="46.7960846369782">
</rtept>
<rtept lon="3.13788712603218" lat="46.7965983548407">
</rtept>
<rtept lon="3.13773456020006" lat="46.7971131385845">
</rtept>
<rtept lon="3.13758778547059" lat="46.7976289882057">
</rtept>
<rtept lon="3.13744680184439" lat="46.7981459037022">
</rtept>
<rtept lon="3.13731160932251" lat="46.7986638850702">
</rtept>
<rtept lon="3.13718220790568" lat="46.7991829323068">
</rtept>
<rtept lon="3.13705859759467" lat="46.7997030454089">
</rtept>
<rtept lon="3.1369407783903" lat="46.8002242243731">
</rtept>
<rtept lon="3.13682875029321" lat="46.8007464691966">
</rtept>
<rtept lon="3.13672251330413" lat="46.8012697798759">
</rtept>
<rtept lon="3.13662206742369" lat="46.801794156408">
</rtept>
<rtept lon="3.13652741265252" lat="46.8023195987896">
</rtept>
<rtept lon="3.13643854899115" lat="46.8028461070177">
</rtept>
<rtept lon="3.13635547644017" lat="46.8033736810889">
</rtept>
<rtept lon="3.13627819500005" lat="46.8039023210001">
</rtept>
<rtept lon="3.13866808900002" lat="46.812873505">
</rtept>
<rtept lon="3.14002570300005" lat="46.8197023440001">
</rtept>
<rtept lon="3.14059489900006" lat="46.8213352760001">
</rtept>
<rtept lon="3.14002570300005" lat="46.8197023440001">
</rtept>
<rtept lon="3.14497706100002" lat="46.8339033930001">
</rtept>
<rtept lon="3.15581831300005" lat="46.855626742">
</rtept>
<rtept lon="3.16289594500006" lat="46.8677174680001">
</rtept>
<rtept lon="3.16440328400006" lat="46.8791414090001">
</rtept>
<rtept lon="3.16423171300005" lat="46.8840850770001">
</rtept>
</rte>
<rte>
<rtept lon="3.40269353299999" lat="47.14512987">
</rtept>
<rtept lon="3.39920083200002" lat="47.150055504">
</rtept>
<rtept lon="3.39170935700002" lat="47.156659117">
</rtept>
<rtept lon="3.39114904600001" lat="47.160804323">
</rtept>
<rtept lon="3.386085917" lat="47.163379968">
</rtept>
<rtept lon="3.37903008500001" lat="47.163257251">
</rtept>
<rtept lon="3.37209594799998" lat="47.1657144">
</rtept>
<rtept lon="3.364987993" lat="47.169446525">
</rtept>
<rtept lon="3.35669288399998" lat="47.171495267">
</rtept>
<rtept lon="3.34908161599998" lat="47.171978695">
</rtept>
<rtept lon="3.32754209900003" lat="47.178226142">
</rtept>
</rte>
</gpx>
