<?xml version="1.0" encoding="UTF-8"?>
<gpx xmlns="http://www.topografix.com/GPX/1/1" creator="FME(R) 2012 SP3" version="1.1" xmlns:xsi="http://www.w3.org/2001/XMLSchema-instance" xsi:schemaLocation="http://www.topografix.com/GPX/1/1 http://www.topografix.com/GPX/1/1/gpx.xsd">
<metadata>
<time>2013-01-16T16:40:10+01:00</time>
<bounds minlat="44.101068515" minlon="3.08306577799999" maxlat="44.492205357" maxlon="4.05486175999999"/>
</metadata>
<rte>
<rtept lon="3.100160061" lat="44.158567155">
</rtept>
<rtept lon="3.09814711600001" lat="44.157245248">
</rtept>
<rtept lon="3.09704240999997" lat="44.153227489">
</rtept>
<rtept lon="3.09738819699999" lat="44.146551598">
</rtept>
<rtept lon="3.09862165599998" lat="44.133237721">
</rtept>
<rtept lon="3.09860164999998" lat="44.129295405">
</rtept>
<rtept lon="3.09478716400002" lat="44.12508981">
</rtept>
<rtept lon="3.089732454" lat="44.121980183">
</rtept>
<rtept lon="3.08306577799999" lat="44.114800423">
</rtept>
</rte>
<rte>
<rtept lon="3.20958146999999" lat="44.164419437">
</rtept>
<rtept lon="3.21074092200001" lat="44.166750648">
</rtept>
<rtept lon="3.20972317299999" lat="44.169792127">
</rtept>
<rtept lon="3.207381312" lat="44.175854244">
</rtept>
<rtept lon="3.20585407999999" lat="44.180416509">
</rtept>
<rtept lon="3.20547689" lat="44.183279559">
</rtept>
<rtept lon="3.20526062900001" lat="44.187264693">
</rtept>
</rte>
<rte>
<rtept lon="4.02571460799999" lat="44.201889556">
</rtept>
<rtept lon="4.02639937999999" lat="44.213100983">
</rtept>
<rtept lon="4.03004432099999" lat="44.218001314">
</rtept>
<rtept lon="4.03438869500002" lat="44.221275571">
</rtept>
<rtept lon="4.04025089700002" lat="44.222467631">
</rtept>
<rtept lon="4.04621033400002" lat="44.223925252">
</rtept>
<rtept lon="4.05004728300003" lat="44.227183789">
</rtept>
<rtept lon="4.051475977" lat="44.231400236">
</rtept>
<rtept lon="4.05227019900002" lat="44.234477185">
</rtept>
<rtept lon="4.05486175999999" lat="44.237143463">
</rtept>
</rte>
<rte>
<rtept lon="3.59415061599998" lat="44.326789393">
</rtept>
<rtept lon="3.59260822099998" lat="44.330635109">
</rtept>
<rtept lon="3.58915679299997" lat="44.336513013">
</rtept>
<rtept lon="3.58334368200002" lat="44.342239249">
</rtept>
<rtept lon="3.579110544" lat="44.345963988">
</rtept>
<rtept lon="3.57772789699999" lat="44.348240009">
</rtept>
<rtept lon="3.57651994000003" lat="44.351315568">
</rtept>
<rtept lon="3.57481571300002" lat="44.353965074">
</rtept>
<rtept lon="3.57012217300002" lat="44.355540465">
</rtept>
<rtept lon="3.56580147199998" lat="44.357458272">
</rtept>
</rte>
<rte>
<rtept lon="3.93479604300001" lat="44.430757834">
</rtept>
<rtept lon="3.93365600200002" lat="44.436127972">
</rtept>
<rtept lon="3.93293324000001" lat="44.442248716">
</rtept>
<rtept lon="3.93304545199999" lat="44.449870669">
</rtept>
</rte>
<rte>
<rtept lon="3.20526062900001" lat="44.187264693">
</rtept>
<rtept lon="3.20635331900002" lat="44.187524519">
</rtept>
<rtept lon="3.215741487" lat="44.18975689">
</rtept>
<rtept lon="3.22166069100001" lat="44.191715394">
</rtept>
<rtept lon="3.226777712" lat="44.192730126">
</rtept>
<rtept lon="3.229838852" lat="44.192938235">
</rtept>
<rtept lon="3.232986729" lat="44.192485506">
</rtept>
<rtept lon="3.23638288500001" lat="44.192493962">
</rtept>
<rtept lon="3.23963466200001" lat="44.193603552">
</rtept>
<rtept lon="3.246548975" lat="44.197405713">
</rtept>
<rtept lon="3.25274755800001" lat="44.199603418">
</rtept>
<rtept lon="3.26286945700002" lat="44.202510519">
</rtept>
<rtept lon="3.27107904600001" lat="44.203509752">
</rtept>
<rtept lon="3.27698295099998" lat="44.203241711">
</rtept>
<rtept lon="3.28080084300001" lat="44.202388256">
</rtept>
<rtept lon="3.28458991899998" lat="44.201754923">
</rtept>
<rtept lon="3.28701076200002" lat="44.202140272">
</rtept>
<rtept lon="3.28959449299998" lat="44.203647533">
</rtept>
<rtept lon="3.289606284" lat="44.203662618">
</rtept>
<rtept lon="3.29197775300003" lat="44.206696633">
</rtept>
<rtept lon="3.29214524299999" lat="44.206765603">
</rtept>
<rtept lon="3.29520296800001" lat="44.208024723">
</rtept>
<rtept lon="3.29943296099998" lat="44.208753673">
</rtept>
<rtept lon="3.30463901899998" lat="44.20910363">
</rtept>
<rtept lon="3.308428295" lat="44.208469383">
</rtept>
<rtept lon="3.31141308500003" lat="44.206892217">
</rtept>
<rtept lon="3.314789604" lat="44.204674681">
</rtept>
<rtept lon="3.31771688200001" lat="44.203537892">
</rtept>
<rtept lon="3.32178326899998" lat="44.203143963">
</rtept>
<rtept lon="3.32567850300001" lat="44.204071547">
</rtept>
<rtept lon="3.33010083800002" lat="44.205700829">
</rtept>
<rtept lon="3.33344090700001" lat="44.206146551">
</rtept>
<rtept lon="3.33747891199999" lat="44.205972263">
</rtept>
<rtept lon="3.341716029" lat="44.204255816">
</rtept>
<rtept lon="3.34589600700002" lat="44.202979766">
</rtept>
<rtept lon="3.35118701800002" lat="44.202666437">
</rtept>
<rtept lon="3.35973293299998" lat="44.203458532">
</rtept>
<rtept lon="3.369951937" lat="44.203250336">
</rtept>
<rtept lon="3.37669414300001" lat="44.201254819">
</rtept>
<rtept lon="3.39669606899997" lat="44.194584411">
</rtept>
<rtept lon="3.41092870799997" lat="44.189528419">
</rtept>
<rtept lon="3.42078829500002" lat="44.184848357">
</rtept>
<rtept lon="3.43002343400002" lat="44.179647807">
</rtept>
</rte>
<rte>
<rtept lon="3.43002343400002" lat="44.179647807">
</rtept>
<rtept lon="3.429911307" lat="44.17997182">
</rtept>
<rtept lon="3.42806924899998" lat="44.185294795">
</rtept>
<rtept lon="3.42461459999998" lat="44.18817696">
</rtept>
<rtept lon="3.41990959100002" lat="44.192991152">
</rtept>
<rtept lon="3.410545673" lat="44.196800188">
</rtept>
<rtept lon="3.39650437699999" lat="44.202757702">
</rtept>
<rtept lon="3.389371756" lat="44.205395141">
</rtept>
<rtept lon="3.38545240600001" lat="44.207613159">
</rtept>
<rtept lon="3.38412784799999" lat="44.210157137">
</rtept>
<rtept lon="3.38403834000002" lat="44.21326168">
</rtept>
<rtept lon="3.38406191500002" lat="44.215485034">
</rtept>
<rtept lon="3.38289847700003" lat="44.217885976">
</rtept>
<rtept lon="3.37984868000001" lat="44.219426694">
</rtept>
<rtept lon="3.37650229899998" lat="44.221426198">
</rtept>
<rtept lon="3.37220301500003" lat="44.226028504">
</rtept>
<rtept lon="3.37088721800001" lat="44.229051651">
</rtept>
<rtept lon="3.37021241600002" lat="44.231895253">
</rtept>
<rtept lon="3.36886800600001" lat="44.235138723">
</rtept>
<rtept lon="3.36571315899999" lat="44.238039553">
</rtept>
<rtept lon="3.35895984299998" lat="44.242478295">
</rtept>
<rtept lon="3.35287518299998" lat="44.246516872">
</rtept>
<rtept lon="3.35219916099999" lat="44.249360463">
</rtept>
<rtept lon="3.35311249300003" lat="44.251865612">
</rtept>
<rtept lon="3.35413348600002" lat="44.255933391">
</rtept>
<rtept lon="3.35367868499998" lat="44.259458426">
</rtept>
<rtept lon="3.353002538" lat="44.262302104">
</rtept>
<rtept lon="3.35444403899999" lat="44.265509132">
</rtept>
<rtept lon="3.356050224" lat="44.269838188">
</rtept>
<rtept lon="3.35849729099999" lat="44.272445507">
</rtept>
<rtept lon="3.359967826" lat="44.275432203">
</rtept>
<rtept lon="3.36049009999999" lat="44.278577998">
</rtept>
<rtept lon="3.35994445099999" lat="44.285208261">
</rtept>
<rtept lon="3.36129601099998" lat="44.291520416">
</rtept>
</rte>
<rte>
<rtept lon="3.93304545199999" lat="44.449870669">
</rtept>
<rtept lon="3.91958680499999" lat="44.451431598">
</rtept>
<rtept lon="3.90969100299998" lat="44.452641164">
</rtept>
<rtept lon="3.90242711799999" lat="44.452975187">
</rtept>
<rtept lon="3.89558282000002" lat="44.452816805">
</rtept>
<rtept lon="3.89115721799999" lat="44.453581791">
</rtept>
<rtept lon="3.88944768800002" lat="44.455806109">
</rtept>
<rtept lon="3.888958661" lat="44.459916113">
</rtept>
<rtept lon="3.88721824999999" lat="44.462397301">
</rtept>
<rtept lon="3.88224940200001" lat="44.464681279">
</rtept>
<rtept lon="3.87414367899999" lat="44.465996938">
</rtept>
<rtept lon="3.86995266600002" lat="44.46781046">
</rtept>
<rtept lon="3.868989876" lat="44.469821539">
</rtept>
<rtept lon="3.86907255400001" lat="44.472155391">
</rtept>
<rtept lon="3.86909389200002" lat="44.475003012">
</rtept>
<rtept lon="3.86663445900001" lat="44.477439994">
</rtept>
<rtept lon="3.86298528499998" lat="44.477733961">
</rtept>
<rtept lon="3.860299392" lat="44.476016774">
</rtept>
<rtept lon="3.85851554499999" lat="44.472802279">
</rtept>
<rtept lon="3.85592227199999" lat="44.470314373">
</rtept>
<rtept lon="3.85245807400003" lat="44.469066722">
</rtept>
<rtept lon="3.848030435" lat="44.469829833">
</rtept>
<rtept lon="3.84338705900001" lat="44.472390833">
</rtept>
<rtept lon="3.84002411900002" lat="44.476324261">
</rtept>
<rtept lon="3.837100695" lat="44.482613621">
</rtept>
<rtept lon="3.834064576" lat="44.486825891">
</rtept>
<rtept lon="3.82977781699998" lat="44.489408445">
</rtept>
<rtept lon="3.82534809100002" lat="44.490170589">
</rtept>
<rtept lon="3.82032423999999" lat="44.489860774">
</rtept>
<rtept lon="3.81617286900001" lat="44.488310666">
</rtept>
<rtept lon="3.81231863699998" lat="44.487296297">
</rtept>
<rtept lon="3.80866845600002" lat="44.487588296">
</rtept>
<rtept lon="3.80444237299997" lat="44.489656035">
</rtept>
<rtept lon="3.80021594999999" lat="44.491723605">
</rtept>
<rtept lon="3.79545778699998" lat="44.492205357">
</rtept>
<rtept lon="3.78909178999999" lat="44.491034462">
</rtept>
<rtept lon="3.78512788199998" lat="44.487941897">
</rtept>
<rtept lon="3.78245862099999" lat="44.483118026">
</rtept>
<rtept lon="3.77933774000002" lat="44.47904241">
</rtept>
<rtept lon="3.77593709600001" lat="44.47727839">
</rtept>
<rtept lon="3.76990094600001" lat="44.476385463">
</rtept>
<rtept lon="3.76481638500002" lat="44.476586579">
</rtept>
<rtept lon="3.75977829700003" lat="44.479378259">
</rtept>
<rtept lon="3.75686100199999" lat="44.482560764">
</rtept>
<rtept lon="3.75515974699999" lat="44.48763065">
</rtept>
<rtept lon="3.75266305000002" lat="44.490321755">
</rtept>
<rtept lon="3.74930857200002" lat="44.491147682">
</rtept>
<rtept lon="3.74359876099999" lat="44.49053239">
</rtept>
</rte>
<rte>
<rtept lon="3.36129601099998" lat="44.291520416">
</rtept>
<rtept lon="3.365293802" lat="44.295255806">
</rtept>
<rtept lon="3.37667724800002" lat="44.295052308">
</rtept>
<rtept lon="3.39944387000003" lat="44.294641429">
</rtept>
<rtept lon="3.43160578499999" lat="44.29388462">
</rtept>
<rtept lon="3.465754135" lat="44.293247618">
</rtept>
<rtept lon="3.47472807999998" lat="44.290956175">
</rtept>
<rtept lon="3.481051562" lat="44.288490884">
</rtept>
<rtept lon="3.49189090599998" lat="44.287279367">
</rtept>
<rtept lon="3.50465693000001" lat="44.286671881">
</rtept>
<rtept lon="3.51778556599999" lat="44.288485014">
</rtept>
<rtept lon="3.52224709000001" lat="44.295491029">
</rtept>
<rtept lon="3.52574363700001" lat="44.299555828">
</rtept>
<rtept lon="3.53255399400001" lat="44.30383526">
</rtept>
<rtept lon="3.53551405899998" lat="44.312182678">
</rtept>
<rtept lon="3.54106096599998" lat="44.31589993">
</rtept>
<rtept lon="3.544500685" lat="44.320440149">
</rtept>
<rtept lon="3.548371938" lat="44.332204539">
</rtept>
<rtept lon="3.55350452300002" lat="44.339252669">
</rtept>
<rtept lon="3.55935355100002" lat="44.340589518">
</rtept>
<rtept lon="3.56326475100002" lat="44.336044015">
</rtept>
<rtept lon="3.56421723" lat="44.328429321">
</rtept>
<rtept lon="3.56703915899999" lat="44.321894701">
</rtept>
<rtept lon="3.57258026099998" lat="44.320332564">
</rtept>
<rtept lon="3.57680481199998" lat="44.323962553">
</rtept>
<rtept lon="3.58259336200001" lat="44.325773919">
</rtept>
<rtept lon="3.59415061599998" lat="44.326789393">
</rtept>
</rte>
<rte>
<rtept lon="3.74359876099999" lat="44.49053239">
</rtept>
<rtept lon="3.73199730800002" lat="44.484459933">
</rtept>
<rtept lon="3.72905363000001" lat="44.475639032">
</rtept>
<rtept lon="3.733092597" lat="44.467255468">
</rtept>
<rtept lon="3.73847584100002" lat="44.456077368">
</rtept>
<rtept lon="3.75577861900001" lat="44.437727781">
</rtept>
<rtept lon="3.767957072" lat="44.428412378">
</rtept>
<rtept lon="3.77078333499998" lat="44.422024503">
</rtept>
<rtept lon="3.77051245899997" lat="44.415618861">
</rtept>
<rtept lon="3.76629004300003" lat="44.411866142">
</rtept>
<rtept lon="3.75924929000001" lat="44.409160137">
</rtept>
<rtept lon="3.74802960199997" lat="44.410618236">
</rtept>
<rtept lon="3.73663520600002" lat="44.413503398">
</rtept>
<rtept lon="3.72792964199999" lat="44.410799066">
</rtept>
<rtept lon="3.72481649999997" lat="44.403407726">
</rtept>
<rtept lon="3.73049409100003" lat="44.398007065">
</rtept>
<rtept lon="3.73508752399999" lat="44.393257876">
</rtept>
<rtept lon="3.74002791100003" lat="44.38565205">
</rtept>
<rtept lon="3.74028915299999" lat="44.363874013">
</rtept>
<rtept lon="3.73372634899999" lat="44.360982347">
</rtept>
<rtept lon="3.72610162299998" lat="44.360503966">
</rtept>
<rtept lon="3.72107885399998" lat="44.360739719">
</rtept>
<rtept lon="3.71681850300001" lat="44.361023161">
</rtept>
<rtept lon="3.71360152199998" lat="44.362198881">
</rtept>
<rtept lon="3.70811013600002" lat="44.366263058">
</rtept>
<rtept lon="3.70444439699997" lat="44.367961505">
</rtept>
<rtept lon="3.70094591499998" lat="44.368292306">
</rtept>
<rtept lon="3.69761497000002" lat="44.367255475">
</rtept>
<rtept lon="3.693622248" lat="44.365349924">
</rtept>
<rtept lon="3.688800227" lat="44.363943066">
</rtept>
<rtept lon="3.68142231899998" lat="44.364579345">
</rtept>
<rtept lon="3.67643257700001" lat="44.364539367">
</rtept>
<rtept lon="3.673449957" lat="44.363799355">
</rtept>
<rtept lon="3.670669358" lat="44.361418318">
</rtept>
<rtept lon="3.66754148899997" lat="44.358739574">
</rtept>
<rtept lon="3.66195843999998" lat="44.357283131">
</rtept>
<rtept lon="3.65405497900002" lat="44.355954644">
</rtept>
<rtept lon="3.65062450400001" lat="44.355736718">
</rtept>
<rtept lon="3.64633040199999" lat="44.356290638">
</rtept>
<rtept lon="3.64345948599998" lat="44.357761809">
</rtept>
<rtept lon="3.63899603300001" lat="44.35968281">
</rtept>
<rtept lon="3.63601423300003" lat="44.358941692">
</rtept>
<rtept lon="3.63219371100001" lat="44.355666357">
</rtept>
<rtept lon="3.62625634099999" lat="44.350877702">
</rtept>
<rtept lon="3.62122595699998" lat="44.348075993">
</rtept>
<rtept lon="3.617169687" lat="44.346714404">
</rtept>
<rtept lon="3.61228358699998" lat="44.345850847">
</rtept>
<rtept lon="3.60691464500002" lat="44.345783041">
</rtept>
<rtept lon="3.60040252200002" lat="44.345641723">
</rtept>
<rtept lon="3.59787120499999" lat="44.344376991">
</rtept>
<rtept lon="3.59481623900001" lat="44.341149175">
</rtept>
<rtept lon="3.58915679299997" lat="44.336513013">
</rtept>
</rte>
<rte>
<rtept lon="3.520413217" lat="44.377168126">
</rtept>
<rtept lon="3.51859064199999" lat="44.375276033">
</rtept>
<rtept lon="3.51840249000003" lat="44.371863838">
</rtept>
<rtept lon="3.51979187000001" lat="44.36574533">
</rtept>
<rtept lon="3.52185064999998" lat="44.360852876">
</rtept>
<rtept lon="3.52227877399997" lat="44.357917339">
</rtept>
<rtept lon="3.52104806400001" lat="44.355774949">
</rtept>
<rtept lon="3.51718276000003" lat="44.35375038">
</rtept>
<rtept lon="3.51355907599998" lat="44.3514457">
</rtept>
<rtept lon="3.51192260699997" lat="44.34857569">
</rtept>
<rtept lon="3.50974155799997" lat="44.344099221">
</rtept>
<rtept lon="3.50533309999997" lat="44.339871984">
</rtept>
<rtept lon="3.49691580500001" lat="44.336959876">
</rtept>
<rtept lon="3.488747225" lat="44.33642767">
</rtept>
<rtept lon="3.47919247999999" lat="44.338168769">
</rtept>
<rtept lon="3.47037901700003" lat="44.342716079">
</rtept>
<rtept lon="3.46433697999998" lat="44.347050032">
</rtept>
<rtept lon="3.45695591999998" lat="44.353266553">
</rtept>
<rtept lon="3.45106083299999" lat="44.356427254">
</rtept>
<rtept lon="3.44303574000003" lat="44.359053793">
</rtept>
<rtept lon="3.43471043400001" lat="44.364024776">
</rtept>
<rtept lon="3.42995239700002" lat="44.366865052">
</rtept>
<rtept lon="3.42385915" lat="44.367252488">
</rtept>
<rtept lon="3.41742111000002" lat="44.366040302">
</rtept>
<rtept lon="3.41232335900003" lat="44.362945381">
</rtept>
<rtept lon="3.39961378300001" lat="44.350676632">
</rtept>
<rtept lon="3.38824243300002" lat="44.340859571">
</rtept>
<rtept lon="3.38310625299999" lat="44.336879829">
</rtept>
<rtept lon="3.38040201899997" lat="44.336284818">
</rtept>
<rtept lon="3.37753862900001" lat="44.336926577">
</rtept>
<rtept lon="3.37355033900002" lat="44.33956134">
</rtept>
<rtept lon="3.37044621400003" lat="44.341612002">
</rtept>
<rtept lon="3.368167519" lat="44.342209176">
</rtept>
<rtept lon="3.36602702099998" lat="44.34173437">
</rtept>
<rtept lon="3.35953403600001" lat="44.337772442">
</rtept>
<rtept lon="3.352859685" lat="44.33417528">
</rtept>
<rtept lon="3.34797106299999" lat="44.329514201">
</rtept>
<rtept lon="3.346266598" lat="44.324286267">
</rtept>
<rtept lon="3.34484977" lat="44.319119023">
</rtept>
<rtept lon="3.34179705299999" lat="44.316850321">
</rtept>
<rtept lon="3.33562484999999" lat="44.313629482">
</rtept>
<rtept lon="3.32675534600003" lat="44.306815029">
</rtept>
<rtept lon="3.32047925900002" lat="44.304424556">
</rtept>
<rtept lon="3.314494078" lat="44.304023814">
</rtept>
<rtept lon="3.30755844999999" lat="44.306712084">
</rtept>
<rtept lon="3.30261049699999" lat="44.306774327">
</rtept>
<rtept lon="3.29381871300001" lat="44.302636682">
</rtept>
<rtept lon="3.28759561300001" lat="44.29985345">
</rtept>
<rtept lon="3.28215525100001" lat="44.29948737">
</rtept>
<rtept lon="3.274232552" lat="44.301318621">
</rtept>
<rtept lon="3.26248233799998" lat="44.307226735">
</rtept>
<rtept lon="3.25445532800001" lat="44.309837877">
</rtept>
<rtept lon="3.24678642700002" lat="44.309713452">
</rtept>
<rtept lon="3.24116040500002" lat="44.306573401">
</rtept>
<rtept lon="3.23747520900002" lat="44.301199515">
</rtept>
<rtept lon="3.23637731999997" lat="44.292847593">
</rtept>
<rtept lon="3.23161874200002" lat="44.281585338">
</rtept>
<rtept lon="3.23090198900002" lat="44.280258124">
</rtept>
<rtept lon="3.22957577099999" lat="44.277802362">
</rtept>
<rtept lon="3.227627719" lat="44.271757836">
</rtept>
<rtept lon="3.22790604599999" lat="44.265470382">
</rtept>
<rtept lon="3.22991771699998" lat="44.258512437">
</rtept>
<rtept lon="3.23099586299998" lat="44.250308837">
</rtept>
<rtept lon="3.23015675300002" lat="44.240004611">
</rtept>
<rtept lon="3.22856939799999" lat="44.231226214">
</rtept>
</rte>
<rte>
<rtept lon="3.22856939799999" lat="44.231226214">
</rtept>
<rtept lon="3.22415608599999" lat="44.214767836">
</rtept>
<rtept lon="3.220193026" lat="44.207404462">
</rtept>
<rtept lon="3.21017883000002" lat="44.19608188">
</rtept>
<rtept lon="3.207075858" lat="44.194688043">
</rtept>
<rtept lon="3.19402279100001" lat="44.19813211">
</rtept>
<rtept lon="3.18027005599998" lat="44.202709061">
</rtept>
<rtept lon="3.16243010900001" lat="44.205033271">
</rtept>
<rtept lon="3.15749171900001" lat="44.205088328">
</rtept>
<rtept lon="3.15503628300002" lat="44.202949005">
</rtept>
<rtept lon="3.15539927600003" lat="44.200215068">
</rtept>
<rtept lon="3.158528413" lat="44.197277054">
</rtept>
<rtept lon="3.15780550199997" lat="44.194468564">
</rtept>
<rtept lon="3.153773973" lat="44.191826825">
</rtept>
<rtept lon="3.14627855999998" lat="44.190523078">
</rtept>
<rtept lon="3.13878352400002" lat="44.189218771">
</rtept>
<rtept lon="3.13382390800001" lat="44.185329849">
</rtept>
<rtept lon="3.12992798699997" lat="44.17757286">
</rtept>
<rtept lon="3.12484401400002" lat="44.170521965">
</rtept>
<rtept lon="3.11841597699998" lat="44.165348484">
</rtept>
<rtept lon="3.10906835499998" lat="44.161548945">
</rtept>
<rtept lon="3.100160061" lat="44.158567155">
</rtept>
</rte>
<rte>
<rtept lon="3.59415061599998" lat="44.326789393">
</rtept>
<rtept lon="3.59556526599999" lat="44.323261697">
</rtept>
<rtept lon="3.59696819300001" lat="44.320180091">
</rtept>
<rtept lon="3.60088731000002" lat="44.318723565">
</rtept>
<rtept lon="3.60909857500002" lat="44.318273595">
</rtept>
<rtept lon="3.61835108299999" lat="44.317645553">
</rtept>
<rtept lon="3.624996318" lat="44.31611838">
</rtept>
<rtept lon="3.62967841800003" lat="44.313977663">
</rtept>
<rtept lon="3.63493665099998" lat="44.309921893">
</rtept>
<rtept lon="3.639587871" lat="44.308022782">
</rtept>
<rtept lon="3.64510054099998" lat="44.307398044">
</rtept>
<rtept lon="3.65190165500002" lat="44.307342829">
</rtept>
<rtept lon="3.65615530700001" lat="44.305905613">
</rtept>
<rtept lon="3.660459129" lat="44.301300234">
</rtept>
<rtept lon="3.66415713100002" lat="44.298851717">
</rtept>
<rtept lon="3.66792390299997" lat="44.298602855">
</rtept>
<rtept lon="3.67536814699997" lat="44.298830845">
</rtept>
<rtept lon="3.68133523699998" lat="44.297257289">
</rtept>
<rtept lon="3.68509132600002" lat="44.294323928">
</rtept>
<rtept lon="3.68782541899998" lat="44.288642701">
</rtept>
<rtept lon="3.69279884700001" lat="44.284078726">
</rtept>
<rtept lon="3.69857483999999" lat="44.281272684">
</rtept>
<rtept lon="3.70310277700003" lat="44.280338918">
</rtept>
<rtept lon="3.71259561400001" lat="44.280449615">
</rtept>
<rtept lon="3.72116623599999" lat="44.27976967">
</rtept>
<rtept lon="3.72752558899998" lat="44.277730525">
</rtept>
<rtept lon="3.73494094300003" lat="44.272586623">
</rtept>
<rtept lon="3.74178275399998" lat="44.269357507">
</rtept>
<rtept lon="3.749765529" lat="44.26790672">
</rtept>
<rtept lon="3.75849449100002" lat="44.268697013">
</rtept>
<rtept lon="3.77038755699999" lat="44.271391329">
</rtept>
<rtept lon="3.78045120799999" lat="44.275189602">
</rtept>
<rtept lon="3.79589453800003" lat="44.282247995">
</rtept>
<rtept lon="3.80377795599998" lat="44.284444913">
</rtept>
<rtept lon="3.81012250600003" lat="44.28532634">
</rtept>
<rtept lon="3.81771073099998" lat="44.284333339">
</rtept>
<rtept lon="3.82727369499997" lat="44.281023158">
</rtept>
<rtept lon="3.83602734099998" lat="44.275955081">
</rtept>
<rtept lon="3.84036010300002" lat="44.2737839">
</rtept>
<rtept lon="3.84513497299997" lat="44.273590765">
</rtept>
<rtept lon="3.85142111099998" lat="44.274953721">
</rtept>
<rtept lon="3.85591685000003" lat="44.27425514">
</rtept>
<rtept lon="3.85996941000002" lat="44.271578203">
</rtept>
<rtept lon="3.86446474000002" lat="44.270879244">
</rtept>
<rtept lon="3.86895994600002" lat="44.270180084">
</rtept>
<rtept lon="3.87126941999998" lat="44.267883376">
</rtept>
<rtept lon="3.87139323700001" lat="44.263989295">
</rtept>
<rtept lon="3.87216195100001" lat="44.260378712">
</rtept>
<rtept lon="3.87621258000001" lat="44.2577012">
</rtept>
<rtept lon="3.88267802299998" lat="44.254683968">
</rtept>
<rtept lon="3.88962301700002" lat="44.25047655">
</rtept>
<rtept lon="3.89653100499999" lat="44.249436389">
</rtept>
<rtept lon="3.90492226999999" lat="44.250193264">
</rtept>
<rtept lon="3.91137872600001" lat="44.25009985">
</rtept>
<rtept lon="3.91845761000002" lat="44.247605644">
</rtept>
<rtept lon="3.92325830599998" lat="44.247166701">
</rtept>
<rtept lon="3.930416439" lat="44.246870997">
</rtept>
<rtept lon="3.93434904200001" lat="44.245159581">
</rtept>
<rtept lon="3.93901185499999" lat="44.243004756">
</rtept>
<rtept lon="3.94384039099998" lat="44.242322737">
</rtept>
<rtept lon="3.94709434800001" lat="44.243495524">
</rtept>
<rtept lon="3.95037270300003" lat="44.247351718">
</rtept>
<rtept lon="3.955307291" lat="44.251551994">
</rtept>
<rtept lon="3.96058312500003" lat="44.252846793">
</rtept>
<rtept lon="3.96701147200002" lat="44.252991892">
</rtept>
<rtept lon="3.97075106199998" lat="44.251947107">
</rtept>
<rtept lon="3.97347276199997" lat="44.250831244">
</rtept>
<rtept lon="3.97658734100003" lat="44.249425574">
</rtept>
<rtept lon="3.97894765900003" lat="44.246642277">
</rtept>
<rtept lon="3.98181171700003" lat="44.245352218">
</rtept>
<rtept lon="3.98767853599998" lat="44.244486921">
</rtept>
<rtept lon="3.99062692400003" lat="44.242470294">
</rtept>
<rtept lon="3.991582671" lat="44.240089792">
</rtept>
<rtept lon="3.98987252799998" lat="44.237304897">
</rtept>
<rtept lon="3.989930894" lat="44.233895147">
</rtept>
<rtept lon="3.99321530700001" lat="44.231898782">
</rtept>
<rtept lon="3.99877187300001" lat="44.230770477">
</rtept>
<rtept lon="4.00498874200002" lat="44.22900922">
</rtept>
<rtept lon="4.00897847300001" lat="44.226098242">
</rtept>
<rtept lon="4.01142362000002" lat="44.219366658">
</rtept>
<rtept lon="4.01309142999997" lat="44.217221969">
</rtept>
<rtept lon="4.02007733099998" lat="44.206670913">
</rtept>
<rtept lon="4.02571460799999" lat="44.201889556">
</rtept>
</rte>
<rte>
<rtept lon="4.05486175999999" lat="44.237143463">
</rtept>
<rtept lon="4.05419764499999" lat="44.242902439">
</rtept>
<rtept lon="4.05223878300001" lat="44.246772231">
</rtept>
<rtept lon="4.04936119400003" lat="44.249862404">
</rtept>
<rtept lon="4.04886253900003" lat="44.254181726">
</rtept>
<rtept lon="4.04782139000002" lat="44.25883116">
</rtept>
<rtept lon="4.0443588" lat="44.262611298">
</rtept>
<rtept lon="4.03847441699997" lat="44.265521867">
</rtept>
<rtept lon="4.02561813400001" lat="44.267652591">
</rtept>
<rtept lon="4.01255167199997" lat="44.271581388">
</rtept>
<rtept lon="4.00131951999998" lat="44.277068737">
</rtept>
<rtept lon="3.99743515" lat="44.280097402">
</rtept>
<rtept lon="3.99542866899998" lat="44.284326348">
</rtept>
<rtept lon="3.99171133999999" lat="44.285915044">
</rtept>
<rtept lon="3.98498725799999" lat="44.287322504">
</rtept>
<rtept lon="3.98047385500001" lat="44.291400228">
</rtept>
<rtept lon="3.97838137799999" lat="44.296348839">
</rtept>
<rtept lon="3.977290934" lat="44.301357927">
</rtept>
<rtept lon="3.97323482399997" lat="44.305825639">
</rtept>
<rtept lon="3.96830190899999" lat="44.309152814">
</rtept>
<rtept lon="3.96729456600002" lat="44.313442017">
</rtept>
<rtept lon="3.96703671799997" lat="44.319951597">
</rtept>
<rtept lon="3.966778804" lat="44.32646127">
</rtept>
<rtept lon="3.96572879799999" lat="44.331110595">
</rtept>
<rtept lon="3.96233979700003" lat="44.33416855">
</rtept>
<rtept lon="3.95539724499997" lat="44.337374045">
</rtept>
<rtept lon="3.950919435" lat="44.341090912">
</rtept>
<rtept lon="3.94949304599999" lat="44.34462992">
</rtept>
<rtept lon="3.95007308499999" lat="44.348290436">
</rtept>
<rtept lon="3.95357877499998" lat="44.352853109">
</rtept>
<rtept lon="3.95420149900002" lat="44.356153681">
</rtept>
<rtept lon="3.95131193399999" lat="44.35924178">
</rtept>
<rtept lon="3.94403303899998" lat="44.360976339">
</rtept>
<rtept lon="3.94122739099998" lat="44.363344204">
</rtept>
<rtept lon="3.94139001899998" lat="44.366254526">
</rtept>
<rtept lon="3.94393480000002" lat="44.370396887">
</rtept>
<rtept lon="3.943009023" lat="44.373966433">
</rtept>
<rtept lon="3.94061971999997" lat="44.377084752">
</rtept>
<rtept lon="3.93931176799998" lat="44.383894333">
</rtept>
<rtept lon="3.93767118400001" lat="44.389233536">
</rtept>
<rtept lon="3.93385196899999" lat="44.395891017">
</rtept>
<rtept lon="3.93325725" lat="44.400931181">
</rtept>
<rtept lon="3.93479868600002" lat="44.405013168">
</rtept>
<rtept lon="3.93793201199998" lat="44.408466444">
</rtept>
<rtept lon="3.93709006799998" lat="44.411316186">
</rtept>
<rtept lon="3.93314930399998" lat="44.414703277">
</rtept>
<rtept lon="3.93034022900002" lat="44.417071116">
</rtept>
<rtept lon="3.93054493" lat="44.419621772">
</rtept>
<rtept lon="3.93376385699997" lat="44.422355229">
</rtept>
<rtept lon="3.93543344599999" lat="44.425357298">
</rtept>
<rtept lon="3.93479604300001" lat="44.430757834">
</rtept>
</rte>
<rte>
<rtept lon="3.08306577799999" lat="44.114800423">
</rtept>
<rtept lon="3.084798842" lat="44.111283995">
</rtept>
<rtept lon="3.08526684700001" lat="44.1046489">
</rtept>
<rtept lon="3.09712455599998" lat="44.102550783">
</rtept>
<rtept lon="3.10398849500001" lat="44.101068515">
</rtept>
</rte>
<rte>
<rtept lon="3.56580147199998" lat="44.357458272">
</rtept>
<rtept lon="3.55580784" lat="44.35772106">
</rtept>
<rtept lon="3.55130213199999" lat="44.358612545">
</rtept>
<rtept lon="3.54813659600001" lat="44.361954776">
</rtept>
<rtept lon="3.54677238099998" lat="44.369501454">
</rtept>
<rtept lon="3.54417468399998" lat="44.372684268">
</rtept>
<rtept lon="3.540410237" lat="44.374214888">
</rtept>
<rtept lon="3.537188474" lat="44.373612413">
</rtept>
<rtept lon="3.53374339099997" lat="44.372601188">
</rtept>
<rtept lon="3.53114272599998" lat="44.373615474">
</rtept>
<rtept lon="3.52859307" lat="44.376406899">
</rtept>
<rtept lon="3.52526649800001" lat="44.377815154">
</rtept>
<rtept lon="3.52258816400001" lat="44.377900408">
</rtept>
<rtept lon="3.520413217" lat="44.377168126">
</rtept>
</rte>
<rte>
<rtept lon="3.10398849500001" lat="44.101068515">
</rtept>
<rtept lon="3.103704773" lat="44.110985621">
</rtept>
<rtept lon="3.10408128" lat="44.114011553">
</rtept>
<rtept lon="3.10490178399999" lat="44.115662101">
</rtept>
<rtept lon="3.10658765900001" lat="44.117653857">
</rtept>
<rtept lon="3.10861834299999" lat="44.119013255">
</rtept>
<rtept lon="3.11179221100002" lat="44.11960807">
</rtept>
<rtept lon="3.11596783800002" lat="44.119522154">
</rtept>
<rtept lon="3.11785240500001" lat="44.120027535">
</rtept>
<rtept lon="3.119300657" lat="44.120877678">
</rtept>
<rtept lon="3.12186514699999" lat="44.123117406">
</rtept>
<rtept lon="3.12348483599999" lat="44.124635549">
</rtept>
<rtept lon="3.12560283300002" lat="44.125344396">
</rtept>
<rtept lon="3.129729446" lat="44.125629462">
</rtept>
<rtept lon="3.13442676699998" lat="44.126516203">
</rtept>
<rtept lon="3.13835594900002" lat="44.128287174">
</rtept>
<rtept lon="3.14213729300002" lat="44.131172712">
</rtept>
<rtept lon="3.14544687400002" lat="44.132713186">
</rtept>
<rtept lon="3.14983782799999" lat="44.13395302">
</rtept>
<rtept lon="3.154364531" lat="44.134170817">
</rtept>
<rtept lon="3.15705504699997" lat="44.133512205">
</rtept>
<rtept lon="3.16061142699999" lat="44.133194272">
</rtept>
<rtept lon="3.163670083" lat="44.133685695">
</rtept>
<rtept lon="3.16495357700001" lat="44.134805028">
</rtept>
<rtept lon="3.16573944700002" lat="44.136733843">
</rtept>
<rtept lon="3.16785196500001" lat="44.140441114">
</rtept>
<rtept lon="3.16968217099998" lat="44.144316461">
</rtept>
<rtept lon="3.17296264800001" lat="44.147072616">
</rtept>
<rtept lon="3.17698688000002" lat="44.1491297">
</rtept>
<rtept lon="3.185158618" lat="44.150345758">
</rtept>
<rtept lon="3.18897404099999" lat="44.150044472">
</rtept>
<rtept lon="3.19040610399998" lat="44.150666141">
</rtept>
<rtept lon="3.19046515999997" lat="44.153336625">
</rtept>
<rtept lon="3.18897038599999" lat="44.155308268">
</rtept>
<rtept lon="3.18900657099999" lat="44.156702427">
</rtept>
<rtept lon="3.18947599099999" lat="44.157713063">
</rtept>
<rtept lon="3.19126226499998" lat="44.158356635">
</rtept>
<rtept lon="3.19270632799999" lat="44.158267909">
</rtept>
<rtept lon="3.19697230499997" lat="44.157040563">
</rtept>
<rtept lon="3.19986598499997" lat="44.15694201">
</rtept>
<rtept lon="3.20268228600003" lat="44.15743063">
</rtept>
<rtept lon="3.205266618" lat="44.159680956">
</rtept>
<rtept lon="3.20958146999999" lat="44.164419437">
</rtept>
</rte>
</gpx>
