<?xml version="1.0" encoding="UTF-8"?>
<gpx version="1.0" creator="RoadTracer" xmlns:xsi="http://www.w3.org/2001/XMLSchema-instance" xmlns="http://www.topografix.com/GPX/1/0" xsi:schemaLocation="http://www.topografix.com/GPX/1/0 http://www.topografix.com/GPX/1/0/gpx.xsd">
<bounds minlat="47.292409" minlon="-3.258524" maxlat="47.387600" maxlon="-3.062294"/>
<wpt lat="47.348333" lon="-3.153114">
<name>000</name>
<cmt></cmt>
</wpt>
<wpt lat="47.347105" lon="-3.154664">
<name>001</name>
<cmt></cmt>
</wpt>
<wpt lat="47.348011" lon="-3.157271">
<name>002</name>
<cmt></cmt>
</wpt>
<wpt lat="47.347399" lon="-3.159943">
<name>003</name>
<cmt></cmt>
</wpt>
<wpt lat="47.363155" lon="-3.218581">
<name>004</name>
<cmt></cmt>
</wpt>
<wpt lat="47.371357" lon="-3.221413">
<name>005</name>
<cmt></cmt>
</wpt>
<wpt lat="47.370622" lon="-3.225598">
<name>006</name>
<cmt></cmt>
</wpt>
<wpt lat="47.369490" lon="-3.233929">
<name>007</name>
<cmt></cmt>
</wpt>
<wpt lat="47.369490" lon="-3.233929">
<name>008</name>
<cmt></cmt>
</wpt>
<wpt lat="47.361900" lon="-3.258514">
<name>009</name>
<cmt></cmt>
</wpt>
<wpt lat="47.362264" lon="-3.249432">
<name>010</name>
<cmt></cmt>
</wpt>
<wpt lat="47.356503" lon="-3.241358">
<name>011</name>
<cmt></cmt>
</wpt>
<wpt lat="47.359834" lon="-3.239341">
<name>012</name>
<cmt></cmt>
</wpt>
<wpt lat="47.360215" lon="-3.237432">
<name>013</name>
<cmt></cmt>
</wpt>
<wpt lat="47.365622" lon="-3.230469">
<name>015</name>
<cmt></cmt>
</wpt>
<wpt lat="47.327830" lon="-3.194007">
<name>016</name>
<cmt></cmt>
</wpt>
<wpt lat="47.322702" lon="-3.199731">
<name>017</name>
<cmt></cmt>
</wpt>
<wpt lat="47.315808" lon="-3.187242">
<name>018</name>
<cmt></cmt>
</wpt>
<wpt lat="47.320910" lon="-3.178182">
<name>019</name>
<cmt></cmt>
</wpt>
<wpt lat="47.294120" lon="-3.082330">
<name>020</name>
<cmt></cmt>
</wpt>
<wpt lat="47.294120" lon="-3.082330">
<name>021</name>
<cmt></cmt>
</wpt>
<wpt lat="47.296652" lon="-3.086053">
<name>022</name>
<cmt></cmt>
</wpt>
<wpt lat="47.297918" lon="-3.086541">
<name>023</name>
<cmt></cmt>
</wpt>
<wpt lat="47.304001" lon="-3.078393">
<name>024</name>
<cmt></cmt>
</wpt>
<wpt lat="47.310165" lon="-3.077926">
<name>025</name>
<cmt></cmt>
</wpt>
<wpt lat="47.310707" lon="-3.075651">
<name>026</name>
<cmt></cmt>
</wpt>
<wpt lat="47.312611" lon="-3.064150">
<name>027</name>
<cmt></cmt>
</wpt>
<wpt lat="47.312236" lon="-3.063201">
<name>028</name>
<cmt></cmt>
</wpt>
<wpt lat="47.312611" lon="-3.064150">
<name>029</name>
<cmt></cmt>
</wpt>
<wpt lat="47.310165" lon="-3.077926">
<name>030</name>
<cmt></cmt>
</wpt>
<wpt lat="47.312171" lon="-3.085554">
<name>031</name>
<cmt></cmt>
</wpt>
<wpt lat="47.312080" lon="-3.090066">
<name>032</name>
<cmt></cmt>
</wpt>
<wpt lat="47.313378" lon="-3.097506">
<name>034</name>
<cmt></cmt>
</wpt>
<wpt lat="47.304119" lon="-3.105601">
<name>035</name>
<cmt></cmt>
</wpt>
<wpt lat="47.310385" lon="-3.123250">
<name>036</name>
<cmt></cmt>
</wpt>
<wpt lat="47.324000" lon="-3.139976">
<name>037</name>
<cmt></cmt>
</wpt>
<wpt lat="47.337947" lon="-3.150539">
<name>038</name>
<cmt></cmt>
</wpt>
<wpt lat="47.344540" lon="-3.153763">
<name>039</name>
<cmt></cmt>
</wpt>
<wpt lat="47.346005" lon="-3.154777">
<name>040</name>
<cmt></cmt>
</wpt>
<wpt lat="47.347062" lon="-3.154718">
<name>041</name>
<cmt></cmt>
</wpt>
<wpt lat="47.347105" lon="-3.153881">
<name>042</name>
<cmt></cmt>
</wpt>
<wpt lat="47.348376" lon="-3.153087">
<name>043</name>
<cmt></cmt>
</wpt>
<trk>
<name>GPX 10</name>
<trkseg>
<trkpt lat="47.348333" lon="-3.153114"/>
<trkpt lat="47.347105" lon="-3.153881"/>
<trkpt lat="47.347110" lon="-3.153961"/>
<trkpt lat="47.347110" lon="-3.154331"/>
<trkpt lat="47.347110" lon="-3.154401"/>
<trkpt lat="47.347105" lon="-3.154567"/>
<trkpt lat="47.347105" lon="-3.154664"/>
<trkpt lat="47.347147" lon="-3.154728"/>
<trkpt lat="47.347115" lon="-3.154793"/>
<trkpt lat="47.347142" lon="-3.154975"/>
<trkpt lat="47.347298" lon="-3.155973"/>
<trkpt lat="47.347341" lon="-3.156150"/>
<trkpt lat="47.347641" lon="-3.156815"/>
<trkpt lat="47.347898" lon="-3.157019"/>
<trkpt lat="47.348011" lon="-3.157271"/>
<trkpt lat="47.347952" lon="-3.158403"/>
<trkpt lat="47.347936" lon="-3.158548"/>
<trkpt lat="47.347727" lon="-3.159390"/>
<trkpt lat="47.347657" lon="-3.159556"/>
<trkpt lat="47.347399" lon="-3.159943"/>
<trkpt lat="47.347668" lon="-3.160291"/>
<trkpt lat="47.347807" lon="-3.160452"/>
<trkpt lat="47.347979" lon="-3.160597"/>
<trkpt lat="47.348081" lon="-3.160608"/>
<trkpt lat="47.348499" lon="-3.160527"/>
<trkpt lat="47.348853" lon="-3.160570"/>
<trkpt lat="47.349304" lon="-3.160694"/>
<trkpt lat="47.349374" lon="-3.160887"/>
<trkpt lat="47.349427" lon="-3.161439"/>
<trkpt lat="47.349535" lon="-3.162072"/>
<trkpt lat="47.349771" lon="-3.163387"/>
<trkpt lat="47.349969" lon="-3.164357"/>
<trkpt lat="47.350919" lon="-3.167313"/>
<trkpt lat="47.351090" lon="-3.167812"/>
<trkpt lat="47.351509" lon="-3.169309"/>
<trkpt lat="47.351702" lon="-3.170666"/>
<trkpt lat="47.351932" lon="-3.172254"/>
<trkpt lat="47.352286" lon="-3.175006"/>
<trkpt lat="47.352410" lon="-3.176315"/>
<trkpt lat="47.352410" lon="-3.176304"/>
<trkpt lat="47.352437" lon="-3.176562"/>
<trkpt lat="47.352453" lon="-3.177447"/>
<trkpt lat="47.352592" lon="-3.178165"/>
<trkpt lat="47.352624" lon="-3.179909"/>
<trkpt lat="47.352646" lon="-3.181427"/>
<trkpt lat="47.352667" lon="-3.183911"/>
<trkpt lat="47.352673" lon="-3.184109"/>
<trkpt lat="47.352673" lon="-3.185955"/>
<trkpt lat="47.352743" lon="-3.186470"/>
<trkpt lat="47.352861" lon="-3.187441"/>
<trkpt lat="47.353300" lon="-3.191555"/>
<trkpt lat="47.353386" lon="-3.191780"/>
<trkpt lat="47.354094" lon="-3.193427"/>
<trkpt lat="47.354266" lon="-3.194661"/>
<trkpt lat="47.354454" lon="-3.195079"/>
<trkpt lat="47.355092" lon="-3.196152"/>
<trkpt lat="47.355312" lon="-3.196646"/>
<trkpt lat="47.355596" lon="-3.197166"/>
<trkpt lat="47.356294" lon="-3.198207"/>
<trkpt lat="47.356996" lon="-3.199333"/>
<trkpt lat="47.358252" lon="-3.201007"/>
<trkpt lat="47.360194" lon="-3.203239"/>
<trkpt lat="47.360473" lon="-3.203641"/>
<trkpt lat="47.361508" lon="-3.205374"/>
<trkpt lat="47.362463" lon="-3.206913"/>
<trkpt lat="47.362586" lon="-3.207198"/>
<trkpt lat="47.363219" lon="-3.209864"/>
<trkpt lat="47.363562" lon="-3.211296"/>
<trkpt lat="47.363670" lon="-3.211827"/>
<trkpt lat="47.363702" lon="-3.212374"/>
<trkpt lat="47.363579" lon="-3.213614"/>
<trkpt lat="47.363579" lon="-3.213608"/>
<trkpt lat="47.363579" lon="-3.213624"/>
<trkpt lat="47.363273" lon="-3.214633"/>
<trkpt lat="47.363552" lon="-3.215405"/>
<trkpt lat="47.363713" lon="-3.215952"/>
<trkpt lat="47.363879" lon="-3.217100"/>
<trkpt lat="47.363858" lon="-3.217385"/>
<trkpt lat="47.363815" lon="-3.217551"/>
<trkpt lat="47.363750" lon="-3.217648"/>
<trkpt lat="47.363348" lon="-3.217739"/>
<trkpt lat="47.363241" lon="-3.217782"/>
<trkpt lat="47.363128" lon="-3.217937"/>
<trkpt lat="47.363155" lon="-3.218581"/>
<trkpt lat="47.364228" lon="-3.219525"/>
<trkpt lat="47.364550" lon="-3.219681"/>
<trkpt lat="47.364802" lon="-3.219756"/>
<trkpt lat="47.365676" lon="-3.219783"/>
<trkpt lat="47.366223" lon="-3.219649"/>
<trkpt lat="47.366390" lon="-3.219767"/>
<trkpt lat="47.366706" lon="-3.220137"/>
<trkpt lat="47.367500" lon="-3.220823"/>
<trkpt lat="47.367645" lon="-3.221016"/>
<trkpt lat="47.368181" lon="-3.221301"/>
<trkpt lat="47.368235" lon="-3.221419"/>
<trkpt lat="47.368278" lon="-3.221902"/>
<trkpt lat="47.368331" lon="-3.222095"/>
<trkpt lat="47.368407" lon="-3.222240"/>
<trkpt lat="47.368621" lon="-3.222465"/>
<trkpt lat="47.368680" lon="-3.222454"/>
<trkpt lat="47.369002" lon="-3.221971"/>
<trkpt lat="47.369431" lon="-3.221338"/>
<trkpt lat="47.369517" lon="-3.221301"/>
<trkpt lat="47.370032" lon="-3.221397"/>
<trkpt lat="47.370193" lon="-3.221365"/>
<trkpt lat="47.370456" lon="-3.221295"/>
<trkpt lat="47.370681" lon="-3.221295"/>
<trkpt lat="47.371357" lon="-3.221413"/>
<trkpt lat="47.371475" lon="-3.221381"/>
<trkpt lat="47.371550" lon="-3.220904"/>
<trkpt lat="47.371641" lon="-3.220861"/>
<trkpt lat="47.372349" lon="-3.220249"/>
<trkpt lat="47.372403" lon="-3.219997"/>
<trkpt lat="47.372473" lon="-3.219890"/>
<trkpt lat="47.373004" lon="-3.219402"/>
<trkpt lat="47.373090" lon="-3.219337"/>
<trkpt lat="47.373122" lon="-3.219085"/>
<trkpt lat="47.373197" lon="-3.219370"/>
<trkpt lat="47.373208" lon="-3.219396"/>
<trkpt lat="47.373331" lon="-3.219826"/>
<trkpt lat="47.373487" lon="-3.220786"/>
<trkpt lat="47.373487" lon="-3.220775"/>
<trkpt lat="47.373803" lon="-3.222706"/>
<trkpt lat="47.372441" lon="-3.223801"/>
<trkpt lat="47.372188" lon="-3.224117"/>
<trkpt lat="47.371867" lon="-3.224417"/>
<trkpt lat="47.371148" lon="-3.224992"/>
<trkpt lat="47.370799" lon="-3.225356"/>
<trkpt lat="47.370622" lon="-3.225598"/>
<trkpt lat="47.370633" lon="-3.225710"/>
<trkpt lat="47.370660" lon="-3.226075"/>
<trkpt lat="47.370627" lon="-3.226778"/>
<trkpt lat="47.370440" lon="-3.227341"/>
<trkpt lat="47.370633" lon="-3.231407"/>
<trkpt lat="47.370617" lon="-3.231981"/>
<trkpt lat="47.370558" lon="-3.232518"/>
<trkpt lat="47.370461" lon="-3.233006"/>
<trkpt lat="47.369603" lon="-3.233693"/>
<trkpt lat="47.369490" lon="-3.233929"/>
<trkpt lat="47.369496" lon="-3.233934"/>
<trkpt lat="47.370670" lon="-3.234948"/>
<trkpt lat="47.371609" lon="-3.235785"/>
<trkpt lat="47.373159" lon="-3.237174"/>
<trkpt lat="47.375761" lon="-3.239481"/>
<trkpt lat="47.375842" lon="-3.239620"/>
<trkpt lat="47.376453" lon="-3.240865"/>
<trkpt lat="47.376539" lon="-3.240961"/>
<trkpt lat="47.376678" lon="-3.240983"/>
<trkpt lat="47.378229" lon="-3.241203"/>
<trkpt lat="47.378417" lon="-3.241267"/>
<trkpt lat="47.378583" lon="-3.241385"/>
<trkpt lat="47.378717" lon="-3.241551"/>
<trkpt lat="47.379468" lon="-3.242893"/>
<trkpt lat="47.379779" lon="-3.243381"/>
<trkpt lat="47.380981" lon="-3.244314"/>
<trkpt lat="47.383320" lon="-3.246074"/>
<trkpt lat="47.383926" lon="-3.246583"/>
<trkpt lat="47.384221" lon="-3.246744"/>
<trkpt lat="47.384521" lon="-3.246830"/>
<trkpt lat="47.385165" lon="-3.247189"/>
<trkpt lat="47.386640" lon="-3.248370"/>
<trkpt lat="47.386941" lon="-3.248906"/>
<trkpt lat="47.387075" lon="-3.249046"/>
<trkpt lat="47.387198" lon="-3.249067"/>
<trkpt lat="47.387300" lon="-3.249040"/>
<trkpt lat="47.387600" lon="-3.248810"/>
<trkpt lat="47.387558" lon="-3.248944"/>
<trkpt lat="47.387563" lon="-3.248944"/>
<trkpt lat="47.387558" lon="-3.248965"/>
<trkpt lat="47.387300" lon="-3.249040"/>
<trkpt lat="47.387198" lon="-3.249067"/>
<trkpt lat="47.387075" lon="-3.249046"/>
<trkpt lat="47.386941" lon="-3.248906"/>
<trkpt lat="47.386640" lon="-3.248370"/>
<trkpt lat="47.385165" lon="-3.247189"/>
<trkpt lat="47.384521" lon="-3.246830"/>
<trkpt lat="47.384221" lon="-3.246744"/>
<trkpt lat="47.383926" lon="-3.246583"/>
<trkpt lat="47.383320" lon="-3.246074"/>
<trkpt lat="47.380981" lon="-3.244314"/>
<trkpt lat="47.379779" lon="-3.243381"/>
<trkpt lat="47.379468" lon="-3.242893"/>
<trkpt lat="47.378717" lon="-3.241551"/>
<trkpt lat="47.378583" lon="-3.241385"/>
<trkpt lat="47.378417" lon="-3.241267"/>
<trkpt lat="47.378229" lon="-3.241203"/>
<trkpt lat="47.376678" lon="-3.240983"/>
<trkpt lat="47.376539" lon="-3.240961"/>
<trkpt lat="47.376453" lon="-3.240865"/>
<trkpt lat="47.375842" lon="-3.239620"/>
<trkpt lat="47.375761" lon="-3.239481"/>
<trkpt lat="47.373159" lon="-3.237174"/>
<trkpt lat="47.371609" lon="-3.235785"/>
<trkpt lat="47.370670" lon="-3.234948"/>
<trkpt lat="47.369496" lon="-3.233934"/>
<trkpt lat="47.369490" lon="-3.233929"/>
<trkpt lat="47.369351" lon="-3.234229"/>
<trkpt lat="47.369158" lon="-3.234771"/>
<trkpt lat="47.369093" lon="-3.235023"/>
<trkpt lat="47.369050" lon="-3.236031"/>
<trkpt lat="47.369072" lon="-3.236353"/>
<trkpt lat="47.369141" lon="-3.236579"/>
<trkpt lat="47.369238" lon="-3.236782"/>
<trkpt lat="47.369308" lon="-3.237008"/>
<trkpt lat="47.369329" lon="-3.237271"/>
<trkpt lat="47.369265" lon="-3.238317"/>
<trkpt lat="47.369190" lon="-3.238837"/>
<trkpt lat="47.369077" lon="-3.239282"/>
<trkpt lat="47.368830" lon="-3.239905"/>
<trkpt lat="47.368326" lon="-3.240586"/>
<trkpt lat="47.368020" lon="-3.240908"/>
<trkpt lat="47.367564" lon="-3.241385"/>
<trkpt lat="47.366926" lon="-3.241959"/>
<trkpt lat="47.366164" lon="-3.242313"/>
<trkpt lat="47.365526" lon="-3.242716"/>
<trkpt lat="47.365376" lon="-3.242952"/>
<trkpt lat="47.364630" lon="-3.244867"/>
<trkpt lat="47.364432" lon="-3.245269"/>
<trkpt lat="47.363911" lon="-3.245956"/>
<trkpt lat="47.363471" lon="-3.246653"/>
<trkpt lat="47.362871" lon="-3.247882"/>
<trkpt lat="47.362554" lon="-3.248477"/>
<trkpt lat="47.362264" lon="-3.249432"/>
<trkpt lat="47.362130" lon="-3.250167"/>
<trkpt lat="47.362162" lon="-3.250553"/>
<trkpt lat="47.362221" lon="-3.250875"/>
<trkpt lat="47.362350" lon="-3.251379"/>
<trkpt lat="47.362463" lon="-3.252248"/>
<trkpt lat="47.362457" lon="-3.252532"/>
<trkpt lat="47.362093" lon="-3.253815"/>
<trkpt lat="47.361782" lon="-3.255472"/>
<trkpt lat="47.361782" lon="-3.255950"/>
<trkpt lat="47.361739" lon="-3.256867"/>
<trkpt lat="47.361744" lon="-3.257618"/>
<trkpt lat="47.361932" lon="-3.257811"/>
<trkpt lat="47.361900" lon="-3.258514"/>
<trkpt lat="47.361900" lon="-3.258524"/>
<trkpt lat="47.361889" lon="-3.258514"/>
<trkpt lat="47.361835" lon="-3.258514"/>
<trkpt lat="47.361755" lon="-3.258412"/>
<trkpt lat="47.361744" lon="-3.257618"/>
<trkpt lat="47.361739" lon="-3.256867"/>
<trkpt lat="47.361782" lon="-3.255950"/>
<trkpt lat="47.361782" lon="-3.255472"/>
<trkpt lat="47.362093" lon="-3.253815"/>
<trkpt lat="47.362457" lon="-3.252532"/>
<trkpt lat="47.362463" lon="-3.252248"/>
<trkpt lat="47.362350" lon="-3.251379"/>
<trkpt lat="47.362221" lon="-3.250875"/>
<trkpt lat="47.362162" lon="-3.250553"/>
<trkpt lat="47.362130" lon="-3.250167"/>
<trkpt lat="47.362264" lon="-3.249432"/>
<trkpt lat="47.362055" lon="-3.249426"/>
<trkpt lat="47.361782" lon="-3.249341"/>
<trkpt lat="47.361433" lon="-3.249153"/>
<trkpt lat="47.360467" lon="-3.249024"/>
<trkpt lat="47.355564" lon="-3.248364"/>
<trkpt lat="47.355548" lon="-3.248316"/>
<trkpt lat="47.355543" lon="-3.248305"/>
<trkpt lat="47.355516" lon="-3.248214"/>
<trkpt lat="47.355559" lon="-3.247962"/>
<trkpt lat="47.355655" lon="-3.247581"/>
<trkpt lat="47.355993" lon="-3.245548"/>
<trkpt lat="47.356406" lon="-3.242785"/>
<trkpt lat="47.356503" lon="-3.241358"/>
<trkpt lat="47.359636" lon="-3.239422"/>
<trkpt lat="47.359834" lon="-3.239341"/>
<trkpt lat="47.359974" lon="-3.238939"/>
<trkpt lat="47.360215" lon="-3.237432"/>
<trkpt lat="47.360414" lon="-3.237416"/>
<trkpt lat="47.360762" lon="-3.237255"/>
<trkpt lat="47.360923" lon="-3.237131"/>
<trkpt lat="47.361181" lon="-3.236815"/>
<trkpt lat="47.361631" lon="-3.236074"/>
<trkpt lat="47.361798" lon="-3.235897"/>
<trkpt lat="47.363021" lon="-3.234883"/>
<trkpt lat="47.363149" lon="-3.234529"/>
<trkpt lat="47.363536" lon="-3.233263"/>
<trkpt lat="47.364979" lon="-3.231322"/>
<trkpt lat="47.365622" lon="-3.230469"/>
<trkpt lat="47.364056" lon="-3.228784"/>
<trkpt lat="47.364051" lon="-3.228773"/>
<trkpt lat="47.363836" lon="-3.228543"/>
<trkpt lat="47.363080" lon="-3.227760"/>
<trkpt lat="47.362474" lon="-3.227073"/>
<trkpt lat="47.362146" lon="-3.226880"/>
<trkpt lat="47.361562" lon="-3.226585"/>
<trkpt lat="47.361234" lon="-3.226456"/>
<trkpt lat="47.361036" lon="-3.226435"/>
<trkpt lat="47.360419" lon="-3.226606"/>
<trkpt lat="47.359748" lon="-3.226692"/>
<trkpt lat="47.359024" lon="-3.226676"/>
<trkpt lat="47.358568" lon="-3.226504"/>
<trkpt lat="47.358161" lon="-3.226402"/>
<trkpt lat="47.357302" lon="-3.226284"/>
<trkpt lat="47.355559" lon="-3.226161"/>
<trkpt lat="47.354808" lon="-3.226097"/>
<trkpt lat="47.354218" lon="-3.226081"/>
<trkpt lat="47.353778" lon="-3.226102"/>
<trkpt lat="47.353574" lon="-3.226172"/>
<trkpt lat="47.351825" lon="-3.227481"/>
<trkpt lat="47.351133" lon="-3.227894"/>
<trkpt lat="47.350870" lon="-3.227958"/>
<trkpt lat="47.350436" lon="-3.227878"/>
<trkpt lat="47.348124" lon="-3.227250"/>
<trkpt lat="47.347496" lon="-3.227057"/>
<trkpt lat="47.347394" lon="-3.227046"/>
<trkpt lat="47.346343" lon="-3.226971"/>
<trkpt lat="47.346107" lon="-3.226907"/>
<trkpt lat="47.345297" lon="-3.226295"/>
<trkpt lat="47.344964" lon="-3.225968"/>
<trkpt lat="47.344186" lon="-3.224879"/>
<trkpt lat="47.344047" lon="-3.224627"/>
<trkpt lat="47.342384" lon="-3.220169"/>
<trkpt lat="47.342298" lon="-3.219681"/>
<trkpt lat="47.341912" lon="-3.217084"/>
<trkpt lat="47.341837" lon="-3.216746"/>
<trkpt lat="47.341273" lon="-3.215024"/>
<trkpt lat="47.340302" lon="-3.213420"/>
<trkpt lat="47.338634" lon="-3.210508"/>
<trkpt lat="47.336821" lon="-3.207396"/>
<trkpt lat="47.335297" lon="-3.204703"/>
<trkpt lat="47.335292" lon="-3.204693"/>
<trkpt lat="47.333731" lon="-3.201930"/>
<trkpt lat="47.333431" lon="-3.201329"/>
<trkpt lat="47.333071" lon="-3.200465"/>
<trkpt lat="47.332486" lon="-3.199199"/>
<trkpt lat="47.332202" lon="-3.198518"/>
<trkpt lat="47.331902" lon="-3.197933"/>
<trkpt lat="47.331478" lon="-3.197440"/>
<trkpt lat="47.330952" lon="-3.196920"/>
<trkpt lat="47.330673" lon="-3.196608"/>
<trkpt lat="47.330062" lon="-3.196008"/>
<trkpt lat="47.329622" lon="-3.195535"/>
<trkpt lat="47.328104" lon="-3.194168"/>
<trkpt lat="47.327830" lon="-3.194007"/>
<trkpt lat="47.327760" lon="-3.194253"/>
<trkpt lat="47.327428" lon="-3.194784"/>
<trkpt lat="47.327224" lon="-3.195031"/>
<trkpt lat="47.325025" lon="-3.197365"/>
<trkpt lat="47.322702" lon="-3.199731"/>
<trkpt lat="47.321892" lon="-3.199360"/>
<trkpt lat="47.321672" lon="-3.199189"/>
<trkpt lat="47.321082" lon="-3.198577"/>
<trkpt lat="47.319810" lon="-3.197805"/>
<trkpt lat="47.319623" lon="-3.197654"/>
<trkpt lat="47.319505" lon="-3.197488"/>
<trkpt lat="47.319397" lon="-3.197215"/>
<trkpt lat="47.319333" lon="-3.196930"/>
<trkpt lat="47.319140" lon="-3.196233"/>
<trkpt lat="47.318974" lon="-3.195868"/>
<trkpt lat="47.318968" lon="-3.195857"/>
<trkpt lat="47.318882" lon="-3.195654"/>
<trkpt lat="47.318764" lon="-3.195316"/>
<trkpt lat="47.318587" lon="-3.194463"/>
<trkpt lat="47.318142" lon="-3.192703"/>
<trkpt lat="47.317922" lon="-3.192167"/>
<trkpt lat="47.317407" lon="-3.191641"/>
<trkpt lat="47.317273" lon="-3.191437"/>
<trkpt lat="47.316946" lon="-3.190691"/>
<trkpt lat="47.316667" lon="-3.190123"/>
<trkpt lat="47.316479" lon="-3.189592"/>
<trkpt lat="47.316329" lon="-3.188825"/>
<trkpt lat="47.316393" lon="-3.187671"/>
<trkpt lat="47.316393" lon="-3.187376"/>
<trkpt lat="47.316340" lon="-3.187280"/>
<trkpt lat="47.316163" lon="-3.187205"/>
<trkpt lat="47.315808" lon="-3.187242"/>
<trkpt lat="47.315927" lon="-3.186888"/>
<trkpt lat="47.316211" lon="-3.186523"/>
<trkpt lat="47.316345" lon="-3.186293"/>
<trkpt lat="47.316452" lon="-3.185601"/>
<trkpt lat="47.316490" lon="-3.185429"/>
<trkpt lat="47.316790" lon="-3.184946"/>
<trkpt lat="47.316940" lon="-3.184635"/>
<trkpt lat="47.317193" lon="-3.183584"/>
<trkpt lat="47.317359" lon="-3.182918"/>
<trkpt lat="47.317901" lon="-3.181840"/>
<trkpt lat="47.319204" lon="-3.180215"/>
<trkpt lat="47.319505" lon="-3.179893"/>
<trkpt lat="47.320733" lon="-3.178380"/>
<trkpt lat="47.320910" lon="-3.178182"/>
<trkpt lat="47.320948" lon="-3.177828"/>
<trkpt lat="47.320535" lon="-3.176653"/>
<trkpt lat="47.320207" lon="-3.175896"/>
<trkpt lat="47.319311" lon="-3.174115"/>
<trkpt lat="47.318491" lon="-3.171884"/>
<trkpt lat="47.318088" lon="-3.171084"/>
<trkpt lat="47.318083" lon="-3.171074"/>
<trkpt lat="47.316613" lon="-3.168172"/>
<trkpt lat="47.315342" lon="-3.165742"/>
<trkpt lat="47.314956" lon="-3.164915"/>
<trkpt lat="47.313824" lon="-3.162249"/>
<trkpt lat="47.313207" lon="-3.160694"/>
<trkpt lat="47.312542" lon="-3.158360"/>
<trkpt lat="47.311823" lon="-3.155774"/>
<trkpt lat="47.311635" lon="-3.155265"/>
<trkpt lat="47.311415" lon="-3.154761"/>
<trkpt lat="47.310546" lon="-3.153291"/>
<trkpt lat="47.310428" lon="-3.153098"/>
<trkpt lat="47.309993" lon="-3.152384"/>
<trkpt lat="47.308470" lon="-3.149514"/>
<trkpt lat="47.308304" lon="-3.149219"/>
<trkpt lat="47.306448" lon="-3.147084"/>
<trkpt lat="47.305782" lon="-3.146371"/>
<trkpt lat="47.305729" lon="-3.146301"/>
<trkpt lat="47.305568" lon="-3.145995"/>
<trkpt lat="47.304189" lon="-3.140936"/>
<trkpt lat="47.303808" lon="-3.139606"/>
<trkpt lat="47.302945" lon="-3.135846"/>
<trkpt lat="47.302709" lon="-3.134783"/>
<trkpt lat="47.302285" lon="-3.133340"/>
<trkpt lat="47.301432" lon="-3.129682"/>
<trkpt lat="47.300992" lon="-3.128126"/>
<trkpt lat="47.300869" lon="-3.127440"/>
<trkpt lat="47.300670" lon="-3.126050"/>
<trkpt lat="47.300670" lon="-3.126045"/>
<trkpt lat="47.300418" lon="-3.124806"/>
<trkpt lat="47.299882" lon="-3.122676"/>
<trkpt lat="47.299442" lon="-3.121748"/>
<trkpt lat="47.299050" lon="-3.121233"/>
<trkpt lat="47.298900" lon="-3.120857"/>
<trkpt lat="47.298760" lon="-3.120273"/>
<trkpt lat="47.298497" lon="-3.118964"/>
<trkpt lat="47.298299" lon="-3.118175"/>
<trkpt lat="47.298031" lon="-3.117440"/>
<trkpt lat="47.297789" lon="-3.116909"/>
<trkpt lat="47.297307" lon="-3.115761"/>
<trkpt lat="47.296990" lon="-3.114828"/>
<trkpt lat="47.296808" lon="-3.114093"/>
<trkpt lat="47.296604" lon="-3.113229"/>
<trkpt lat="47.295504" lon="-3.110021"/>
<trkpt lat="47.295472" lon="-3.109732"/>
<trkpt lat="47.295177" lon="-3.107167"/>
<trkpt lat="47.294962" lon="-3.106084"/>
<trkpt lat="47.294785" lon="-3.105612"/>
<trkpt lat="47.294523" lon="-3.105043"/>
<trkpt lat="47.293804" lon="-3.102908"/>
<trkpt lat="47.293471" lon="-3.102157"/>
<trkpt lat="47.293348" lon="-3.101728"/>
<trkpt lat="47.293219" lon="-3.101063"/>
<trkpt lat="47.293101" lon="-3.100140"/>
<trkpt lat="47.292951" lon="-3.099330"/>
<trkpt lat="47.292543" lon="-3.098338"/>
<trkpt lat="47.292436" lon="-3.097898"/>
<trkpt lat="47.292409" lon="-3.097447"/>
<trkpt lat="47.292446" lon="-3.096777"/>
<trkpt lat="47.292446" lon="-3.096079"/>
<trkpt lat="47.292409" lon="-3.095248"/>
<trkpt lat="47.292409" lon="-3.094416"/>
<trkpt lat="47.292446" lon="-3.094057"/>
<trkpt lat="47.292800" lon="-3.092635"/>
<trkpt lat="47.292806" lon="-3.092115"/>
<trkpt lat="47.292811" lon="-3.091691"/>
<trkpt lat="47.292822" lon="-3.091224"/>
<trkpt lat="47.292854" lon="-3.089213"/>
<trkpt lat="47.293144" lon="-3.085619"/>
<trkpt lat="47.293294" lon="-3.085109"/>
<trkpt lat="47.293509" lon="-3.084599"/>
<trkpt lat="47.293841" lon="-3.083982"/>
<trkpt lat="47.294072" lon="-3.083301"/>
<trkpt lat="47.294174" lon="-3.082674"/>
<trkpt lat="47.294120" lon="-3.082330"/>
<trkpt lat="47.294056" lon="-3.082277"/>
<trkpt lat="47.294045" lon="-3.082271"/>
<trkpt lat="47.294120" lon="-3.082330"/>
<trkpt lat="47.294174" lon="-3.082674"/>
<trkpt lat="47.294404" lon="-3.083060"/>
<trkpt lat="47.294640" lon="-3.083575"/>
<trkpt lat="47.294828" lon="-3.083805"/>
<trkpt lat="47.295091" lon="-3.084133"/>
<trkpt lat="47.295971" lon="-3.085232"/>
<trkpt lat="47.296652" lon="-3.086053"/>
<trkpt lat="47.297500" lon="-3.086439"/>
<trkpt lat="47.297918" lon="-3.086541"/>
<trkpt lat="47.299077" lon="-3.082191"/>
<trkpt lat="47.299184" lon="-3.081762"/>
<trkpt lat="47.299468" lon="-3.080919"/>
<trkpt lat="47.299442" lon="-3.080474"/>
<trkpt lat="47.299538" lon="-3.079069"/>
<trkpt lat="47.299624" lon="-3.078993"/>
<trkpt lat="47.303132" lon="-3.078559"/>
<trkpt lat="47.303572" lon="-3.078516"/>
<trkpt lat="47.304001" lon="-3.078393"/>
<trkpt lat="47.304516" lon="-3.078409"/>
<trkpt lat="47.306034" lon="-3.078720"/>
<trkpt lat="47.306222" lon="-3.078575"/>
<trkpt lat="47.306389" lon="-3.077947"/>
<trkpt lat="47.306458" lon="-3.077776"/>
<trkpt lat="47.307054" lon="-3.077647"/>
<trkpt lat="47.307402" lon="-3.077212"/>
<trkpt lat="47.307783" lon="-3.077105"/>
<trkpt lat="47.307960" lon="-3.077170"/>
<trkpt lat="47.308352" lon="-3.077191"/>
<trkpt lat="47.308636" lon="-3.077164"/>
<trkpt lat="47.308996" lon="-3.077014"/>
<trkpt lat="47.309301" lon="-3.076821"/>
<trkpt lat="47.309575" lon="-3.076810"/>
<trkpt lat="47.310004" lon="-3.077352"/>
<trkpt lat="47.310165" lon="-3.077926"/>
<trkpt lat="47.310541" lon="-3.077137"/>
<trkpt lat="47.310632" lon="-3.075925"/>
<trkpt lat="47.310707" lon="-3.075651"/>
<trkpt lat="47.311050" lon="-3.075169"/>
<trkpt lat="47.312252" lon="-3.073259"/>
<trkpt lat="47.313400" lon="-3.071929"/>
<trkpt lat="47.313808" lon="-3.071349"/>
<trkpt lat="47.313856" lon="-3.071022"/>
<trkpt lat="47.313867" lon="-3.070775"/>
<trkpt lat="47.313502" lon="-3.068334"/>
<trkpt lat="47.313389" lon="-3.067685"/>
<trkpt lat="47.312643" lon="-3.064644"/>
<trkpt lat="47.312611" lon="-3.064150"/>
<trkpt lat="47.312236" lon="-3.063201"/>
<trkpt lat="47.311919" lon="-3.062305"/>
<trkpt lat="47.311914" lon="-3.062294"/>
<trkpt lat="47.312236" lon="-3.063201"/>
<trkpt lat="47.312611" lon="-3.064150"/>
<trkpt lat="47.312643" lon="-3.064644"/>
<trkpt lat="47.313389" lon="-3.067685"/>
<trkpt lat="47.313502" lon="-3.068334"/>
<trkpt lat="47.313867" lon="-3.070775"/>
<trkpt lat="47.313856" lon="-3.071022"/>
<trkpt lat="47.313808" lon="-3.071349"/>
<trkpt lat="47.313400" lon="-3.071929"/>
<trkpt lat="47.312252" lon="-3.073259"/>
<trkpt lat="47.311050" lon="-3.075169"/>
<trkpt lat="47.310707" lon="-3.075651"/>
<trkpt lat="47.310632" lon="-3.075925"/>
<trkpt lat="47.310541" lon="-3.077137"/>
<trkpt lat="47.310165" lon="-3.077926"/>
<trkpt lat="47.310160" lon="-3.078103"/>
<trkpt lat="47.310122" lon="-3.079514"/>
<trkpt lat="47.310144" lon="-3.079975"/>
<trkpt lat="47.310219" lon="-3.080378"/>
<trkpt lat="47.310492" lon="-3.081139"/>
<trkpt lat="47.311013" lon="-3.081906"/>
<trkpt lat="47.311791" lon="-3.083988"/>
<trkpt lat="47.312171" lon="-3.085554"/>
<trkpt lat="47.312214" lon="-3.086407"/>
<trkpt lat="47.312220" lon="-3.087813"/>
<trkpt lat="47.312080" lon="-3.090066"/>
<trkpt lat="47.312080" lon="-3.090559"/>
<trkpt lat="47.312102" lon="-3.090919"/>
<trkpt lat="47.312289" lon="-3.091949"/>
<trkpt lat="47.312708" lon="-3.092737"/>
<trkpt lat="47.313593" lon="-3.095167"/>
<trkpt lat="47.313652" lon="-3.095537"/>
<trkpt lat="47.313679" lon="-3.096085"/>
<trkpt lat="47.313427" lon="-3.097345"/>
<trkpt lat="47.313378" lon="-3.097506"/>
<trkpt lat="47.312761" lon="-3.098150"/>
<trkpt lat="47.312719" lon="-3.098252"/>
<trkpt lat="47.312348" lon="-3.100017"/>
<trkpt lat="47.312171" lon="-3.100634"/>
<trkpt lat="47.311968" lon="-3.101014"/>
<trkpt lat="47.311420" lon="-3.101862"/>
<trkpt lat="47.310374" lon="-3.103466"/>
<trkpt lat="47.310374" lon="-3.103466"/>
<trkpt lat="47.309044" lon="-3.105515"/>
<trkpt lat="47.308862" lon="-3.105681"/>
<trkpt lat="47.308663" lon="-3.105724"/>
<trkpt lat="47.307708" lon="-3.105408"/>
<trkpt lat="47.307011" lon="-3.105172"/>
<trkpt lat="47.306914" lon="-3.105376"/>
<trkpt lat="47.306501" lon="-3.105429"/>
<trkpt lat="47.305670" lon="-3.105590"/>
<trkpt lat="47.304119" lon="-3.105601"/>
<trkpt lat="47.304082" lon="-3.107559"/>
<trkpt lat="47.304157" lon="-3.107994"/>
<trkpt lat="47.304527" lon="-3.109667"/>
<trkpt lat="47.304559" lon="-3.110064"/>
<trkpt lat="47.304586" lon="-3.110896"/>
<trkpt lat="47.304634" lon="-3.111201"/>
<trkpt lat="47.304801" lon="-3.111679"/>
<trkpt lat="47.305278" lon="-3.112795"/>
<trkpt lat="47.305874" lon="-3.113814"/>
<trkpt lat="47.306169" lon="-3.114447"/>
<trkpt lat="47.306249" lon="-3.114699"/>
<trkpt lat="47.306308" lon="-3.114983"/>
<trkpt lat="47.306346" lon="-3.115321"/>
<trkpt lat="47.306362" lon="-3.116046"/>
<trkpt lat="47.306421" lon="-3.116984"/>
<trkpt lat="47.306651" lon="-3.118637"/>
<trkpt lat="47.306769" lon="-3.118862"/>
<trkpt lat="47.307091" lon="-3.119216"/>
<trkpt lat="47.308808" lon="-3.121008"/>
<trkpt lat="47.309055" lon="-3.121399"/>
<trkpt lat="47.309162" lon="-3.121630"/>
<trkpt lat="47.309398" lon="-3.122016"/>
<trkpt lat="47.310385" lon="-3.123250"/>
<trkpt lat="47.310873" lon="-3.123486"/>
<trkpt lat="47.311329" lon="-3.124114"/>
<trkpt lat="47.311860" lon="-3.125004"/>
<trkpt lat="47.312295" lon="-3.125798"/>
<trkpt lat="47.312289" lon="-3.125787"/>
<trkpt lat="47.312649" lon="-3.126436"/>
<trkpt lat="47.312804" lon="-3.126565"/>
<trkpt lat="47.313014" lon="-3.126635"/>
<trkpt lat="47.313405" lon="-3.126699"/>
<trkpt lat="47.313598" lon="-3.126780"/>
<trkpt lat="47.314285" lon="-3.127579"/>
<trkpt lat="47.314408" lon="-3.127745"/>
<trkpt lat="47.314677" lon="-3.128019"/>
<trkpt lat="47.315342" lon="-3.128464"/>
<trkpt lat="47.315658" lon="-3.128856"/>
<trkpt lat="47.315825" lon="-3.129054"/>
<trkpt lat="47.316259" lon="-3.129580"/>
<trkpt lat="47.316522" lon="-3.129902"/>
<trkpt lat="47.316672" lon="-3.130433"/>
<trkpt lat="47.316828" lon="-3.130615"/>
<trkpt lat="47.317289" lon="-3.130991"/>
<trkpt lat="47.317906" lon="-3.131313"/>
<trkpt lat="47.318056" lon="-3.131474"/>
<trkpt lat="47.318142" lon="-3.131629"/>
<trkpt lat="47.318174" lon="-3.132058"/>
<trkpt lat="47.318319" lon="-3.132257"/>
<trkpt lat="47.318335" lon="-3.132273"/>
<trkpt lat="47.318362" lon="-3.132391"/>
<trkpt lat="47.318351" lon="-3.132552"/>
<trkpt lat="47.318222" lon="-3.133378"/>
<trkpt lat="47.318271" lon="-3.133576"/>
<trkpt lat="47.318453" lon="-3.133737"/>
<trkpt lat="47.319928" lon="-3.134665"/>
<trkpt lat="47.320245" lon="-3.135191"/>
<trkpt lat="47.320363" lon="-3.135293"/>
<trkpt lat="47.320776" lon="-3.135470"/>
<trkpt lat="47.321307" lon="-3.135749"/>
<trkpt lat="47.321570" lon="-3.136039"/>
<trkpt lat="47.322187" lon="-3.137755"/>
<trkpt lat="47.322519" lon="-3.138244"/>
<trkpt lat="47.323721" lon="-3.139724"/>
<trkpt lat="47.323834" lon="-3.139869"/>
<trkpt lat="47.324000" lon="-3.139976"/>
<trkpt lat="47.324456" lon="-3.141274"/>
<trkpt lat="47.324451" lon="-3.141264"/>
<trkpt lat="47.324595" lon="-3.141666"/>
<trkpt lat="47.324783" lon="-3.142723"/>
<trkpt lat="47.324907" lon="-3.143801"/>
<trkpt lat="47.324982" lon="-3.143962"/>
<trkpt lat="47.325239" lon="-3.144107"/>
<trkpt lat="47.325523" lon="-3.144150"/>
<trkpt lat="47.325668" lon="-3.144241"/>
<trkpt lat="47.326022" lon="-3.144649"/>
<trkpt lat="47.326350" lon="-3.145019"/>
<trkpt lat="47.326795" lon="-3.145067"/>
<trkpt lat="47.327042" lon="-3.145067"/>
<trkpt lat="47.327353" lon="-3.145056"/>
<trkpt lat="47.327980" lon="-3.145126"/>
<trkpt lat="47.328259" lon="-3.145206"/>
<trkpt lat="47.329241" lon="-3.145716"/>
<trkpt lat="47.330416" lon="-3.146923"/>
<trkpt lat="47.330877" lon="-3.147197"/>
<trkpt lat="47.330974" lon="-3.147256"/>
<trkpt lat="47.331473" lon="-3.147958"/>
<trkpt lat="47.331821" lon="-3.148908"/>
<trkpt lat="47.331977" lon="-3.149257"/>
<trkpt lat="47.332052" lon="-3.149353"/>
<trkpt lat="47.332417" lon="-3.149509"/>
<trkpt lat="47.332878" lon="-3.148559"/>
<trkpt lat="47.333286" lon="-3.148109"/>
<trkpt lat="47.333543" lon="-3.148012"/>
<trkpt lat="47.334638" lon="-3.148570"/>
<trkpt lat="47.334927" lon="-3.148790"/>
<trkpt lat="47.336370" lon="-3.149627"/>
<trkpt lat="47.336360" lon="-3.149621"/>
<trkpt lat="47.337947" lon="-3.150539"/>
<trkpt lat="47.338355" lon="-3.150389"/>
<trkpt lat="47.338554" lon="-3.150308"/>
<trkpt lat="47.340040" lon="-3.149385"/>
<trkpt lat="47.342765" lon="-3.147889"/>
<trkpt lat="47.343103" lon="-3.147856"/>
<trkpt lat="47.343247" lon="-3.148216"/>
<trkpt lat="47.343247" lon="-3.148382"/>
<trkpt lat="47.343178" lon="-3.149053"/>
<trkpt lat="47.343092" lon="-3.149273"/>
<trkpt lat="47.343366" lon="-3.149734"/>
<trkpt lat="47.343596" lon="-3.149756"/>
<trkpt lat="47.343929" lon="-3.149831"/>
<trkpt lat="47.344530" lon="-3.150490"/>
<trkpt lat="47.344642" lon="-3.150979"/>
<trkpt lat="47.344648" lon="-3.151161"/>
<trkpt lat="47.344605" lon="-3.151891"/>
<trkpt lat="47.344347" lon="-3.153403"/>
<trkpt lat="47.344406" lon="-3.153634"/>
<trkpt lat="47.344540" lon="-3.153763"/>
<trkpt lat="47.344680" lon="-3.153709"/>
<trkpt lat="47.344959" lon="-3.153414"/>
<trkpt lat="47.345039" lon="-3.153371"/>
<trkpt lat="47.345259" lon="-3.153387"/>
<trkpt lat="47.345549" lon="-3.153897"/>
<trkpt lat="47.345629" lon="-3.154004"/>
<trkpt lat="47.345930" lon="-3.154621"/>
<trkpt lat="47.346005" lon="-3.154777"/>
<trkpt lat="47.347062" lon="-3.154718"/>
<trkpt lat="47.347105" lon="-3.154664"/>
<trkpt lat="47.347147" lon="-3.154728"/>
<trkpt lat="47.347362" lon="-3.154750"/>
<trkpt lat="47.347571" lon="-3.154777"/>
<trkpt lat="47.347721" lon="-3.154761"/>
<trkpt lat="47.347743" lon="-3.154702"/>
<trkpt lat="47.347764" lon="-3.154417"/>
<trkpt lat="47.347796" lon="-3.153875"/>
<trkpt lat="47.347759" lon="-3.153854"/>
<trkpt lat="47.347646" lon="-3.153859"/>
<trkpt lat="47.347405" lon="-3.153870"/>
<trkpt lat="47.347223" lon="-3.153875"/>
<trkpt lat="47.347105" lon="-3.153881"/>
<trkpt lat="47.348376" lon="-3.153087"/>
</trkseg>
</trk>
</gpx>
