<?xml version="1.0" encoding="UTF-8" standalone="yes"?>
<gpx
version="1.0"
creator="ITN Converter 1.78 (http://www.benichou-software.com)"
xmlns:xsi="http://www.w3.org/2001/XMLSchema-instance"
xmlns="http://www.topografix.com/GPX/1/0"
xmlns:topografix="http://www.topografix.com/GPX/Private/TopoGrafix/0/2"
xsi:schemaLocation="http://www.topografix.com/GPX/1/0 http://www.topografix.com/GPX/1/0/gpx.xsd http://www.topografix.com/GPX/Private/TopoGrafix/0/2 http://www.topografix.com/GPX/Private/TopoGrafix/0/2/topografix.xsd">
<time>2012-05-10T17:23:59Z</time>
<bounds minlat="45.535411" minlon="3.154690" maxlat="45.750137" maxlon="3.881746"/>
<rte>
  <name>Livardois-Forez2</name>
<rtept lat="45.730440" lon="3.211830">
  <name>91-95 Avenue du Pont, 63800 Cournon-D&apos;Auvergne, France</name>
</rtept>
<rtept lat="45.723070" lon="3.358140">
  <name>D997, 63160 Billom, France</name>
</rtept>
<rtept lat="45.680186" lon="3.451617">
  <name>Estandeuil</name>
</rtept>
<rtept lat="45.697910" lon="3.494141">
  <name>Saint-Dier-d&apos;Auvergne</name>
</rtept>
<rtept lat="45.750137" lon="3.544738">
  <name>Courpière, Rue de Saint-Nicolas</name>
</rtept>
<rtept lat="45.692210" lon="3.599630">
  <name>D906, 63880 Olliergues, France</name>
</rtept>
<rtept lat="45.647304" lon="3.707847">
  <name>Vertolaye</name>
</rtept>
<rtept lat="45.669365" lon="3.728234">
  <name>Saint-Pierre-la-Bourlhonne</name>
</rtept>
<rtept lat="45.642130" lon="3.777108">
  <name>Vertolaye</name>
</rtept>
<rtept lat="45.619802" lon="3.733709">
  <name>Job</name>
</rtept>
<rtept lat="45.553858" lon="3.740728">
  <name>Ambert</name>
</rtept>
<rtept lat="45.586085" lon="3.760243">
  <name>La Forie</name>
</rtept>
<rtept lat="45.594878" lon="3.787277">
  <name>Valcivières</name>
</rtept>
<rtept lat="45.581177" lon="3.881746">
  <name>Saint-Anthème</name>
</rtept>
<rtept lat="45.535411" lon="3.775097">
  <name>Ambert</name>
</rtept>
<rtept lat="45.614380" lon="3.532050">
  <name>D996, 63590 Auzelles, France</name>
</rtept>
<rtept lat="45.642440" lon="3.260100">
  <name>D225, 63270 Vic-le-Comte, France</name>
</rtept>
<rtept lat="45.715400" lon="3.154690">
  <name>Route d&apos;Issoire, 63670 La Roche-Blanche, France</name>
</rtept>
</rte>
</gpx>
