<?xml version="1.0" encoding="UTF-8" standalone="yes"?>
<gpx
version="1.0"
creator="ITN Converter 1.78 (http://www.benichou-software.com)"
xmlns:xsi="http://www.w3.org/2001/XMLSchema-instance"
xmlns="http://www.topografix.com/GPX/1/0"
xmlns:topografix="http://www.topografix.com/GPX/Private/TopoGrafix/0/2"
xsi:schemaLocation="http://www.topografix.com/GPX/1/0 http://www.topografix.com/GPX/1/0/gpx.xsd http://www.topografix.com/GPX/Private/TopoGrafix/0/2 http://www.topografix.com/GPX/Private/TopoGrafix/0/2/topografix.xsd">
<time>2012-05-08T10:11:41Z</time>
<bounds minlat="45.446966" minlon="2.699047" maxlat="45.746867" maxlon="3.129478"/>
<rte>
  <name>MontDore2</name>
<rtept lat="45.746867" lon="3.023854">
  <name>Saint-Genès-Champanelle</name>
</rtept>
<rtept lat="45.703752" lon="3.020364">
  <name>Saint-Genès-Champanelle, D96</name>
</rtept>
<rtept lat="45.659627" lon="3.069788">
  <name>Saint-Saturnin, D8</name>
</rtept>
<rtept lat="45.588524" lon="3.129478">
  <name>Champeix, D996</name>
</rtept>
<rtept lat="45.560083" lon="3.106033">
  <name>Clémensat, D28</name>
</rtept>
<rtept lat="45.532028" lon="3.043821">
  <name>Saurier</name>
</rtept>
<rtept lat="45.464680" lon="2.988292">
  <name>Valbeleix, D26</name>
</rtept>
<rtept lat="45.446966" lon="2.926196">
  <name>Compains, D36</name>
</rtept>
<rtept lat="45.507002" lon="2.942915">
  <name>Besse-en-Chandesse, D633</name>
</rtept>
<rtept lat="45.503260" lon="2.985312">
  <name>Saint-Pierre-Colamine, D619</name>
</rtept>
<rtept lat="45.534300" lon="2.975341">
  <name>Lompras, Route des Grottes</name>
</rtept>
<rtept lat="45.519196" lon="2.931728">
  <name>Besse-en-Chandesse, D36</name>
</rtept>
<rtept lat="45.563824" lon="2.831345">
  <name>Le Mont-Dore, D36</name>
</rtept>
<rtept lat="45.572338" lon="2.790344">
  <name>Le Mont-Dore, D645</name>
</rtept>
<rtept lat="45.530360" lon="2.699047">
  <name>La Tour-d&apos;Auvergne, Route de Besse</name>
</rtept>
<rtept lat="45.474198" lon="2.851070">
  <name>Besse-en-Chandesse, Pontchoix</name>
</rtept>
<rtept lat="45.571927" lon="3.057367">
  <name>Creste</name>
</rtept>
<rtept lat="45.587983" lon="2.822124">
  <name>Le Mont-Dore, D983</name>
</rtept>
<rtept lat="45.686599" lon="2.941248">
  <name>Aydat, D5</name>
</rtept>
<rtept lat="45.746328" lon="3.024386">
  <name>Saint-Genès-Champanelle</name>
</rtept>
</rte>
</gpx>
