<?xml version="1.0" encoding="UTF-8" standalone="yes"?>
<gpx
version="1.0"
creator="ITN Converter 1.82 (http://www.benichou-software.com)"
xmlns:xsi="http://www.w3.org/2001/XMLSchema-instance"
xmlns="http://www.topografix.com/GPX/1/0"
xmlns:topografix="http://www.topografix.com/GPX/Private/TopoGrafix/0/2"
xsi:schemaLocation="http://www.topografix.com/GPX/1/0 http://www.topografix.com/GPX/1/0/gpx.xsd http://www.topografix.com/GPX/Private/TopoGrafix/0/2 http://www.topografix.com/GPX/Private/TopoGrafix/0/2/topografix.xsd">
<time>2013-05-24T13:02:44Z</time>
<bounds minlat="44.683579" minlon="2.845605" maxlat="45.094749" maxlon="3.882936"/>
<rte>
  <name>Etape_2a</name>
<rtept lat="45.042768" lon="3.882936">
  <name>Le Puy-en-Velay, France</name>
</rtept>
<rtept lat="44.820003" lon="3.768520">
  <name>Saint-Haon, D88</name>
</rtept>
<rtept lat="44.879278" lon="3.732249">
  <name>Saint-Haon, D40</name>
</rtept>
<rtept lat="44.936405" lon="3.681674">
  <name>Alleyras, D40</name>
</rtept>
<rtept lat="44.983053" lon="3.642462">
  <name>Saint-Privat-d&apos;Allier, D301</name>
</rtept>
<rtept lat="45.041040" lon="3.588271">
  <name>Saint-Julien-des-Chazes, Combe Croze</name>
</rtept>
<rtept lat="45.094749" lon="3.493819">
  <name>Langeac, D590</name>
</rtept>
<rtept lat="45.052540" lon="3.389245">
  <name>Pinols, D590</name>
</rtept>
<rtept lat="45.033153" lon="3.229689">
  <name>Vabres, D13</name>
</rtept>
<rtept lat="44.984731" lon="3.166610">
  <name>Anglards-de-Saint-Flour, D909</name>
</rtept>
<rtept lat="44.912864" lon="3.119844">
  <name>Fridefont, D13</name>
</rtept>
<rtept lat="44.851454" lon="3.002966">
  <name>Chaudes-Aigues, D921</name>
</rtept>
<rtept lat="44.683579" lon="2.845605">
  <name>Laguiole, France</name>
</rtept>
</rte>
</gpx>
